lat,lon,time,longitude,latitude,nep
0,0,2016-01-01 00:00:00,-133.51878,68.32029,-8.624287892305952e-09
0,0,2016-01-02 00:00:00,-133.51878,68.32029,-8.321534895757302e-09
0,0,2016-01-03 00:00:00,-133.51878,68.32029,-8.044452592314851e-09
0,0,2016-01-04 00:00:00,-133.51878,68.32029,-7.988352321828335e-09
0,0,2016-01-05 00:00:00,-133.51878,68.32029,-7.873789218102603e-09
0,0,2016-01-06 00:00:00,-133.51878,68.32029,-7.76845460555438e-09
0,0,2016-01-07 00:00:00,-133.51878,68.32029,-7.932198181391794e-09
0,0,2016-01-08 00:00:00,-133.51878,68.32029,-8.115426067374869e-09
0,0,2016-01-09 00:00:00,-133.51878,68.32029,-7.981905130519887e-09
0,0,2016-01-10 00:00:00,-133.51878,68.32029,-7.752216721687314e-09
0,0,2016-01-11 00:00:00,-133.51878,68.32029,-7.597678210952139e-09
0,0,2016-01-12 00:00:00,-133.51878,68.32029,-6.10407142050967e-09
0,0,2016-01-13 00:00:00,-133.51878,68.32029,-5.94780851228006e-09
0,0,2016-01-14 00:00:00,-133.51878,68.32029,-5.826680307756593e-09
0,0,2016-01-15 00:00:00,-133.51878,68.32029,-5.2842607312247015e-09
0,0,2016-01-16 00:00:00,-133.51878,68.32029,-5.268141893791262e-09
0,0,2016-01-17 00:00:00,-133.51878,68.32029,-5.315746501742773e-09
0,0,2016-01-18 00:00:00,-133.51878,68.32029,-5.33986102596311e-09
0,0,2016-01-19 00:00:00,-133.51878,68.32029,-5.366417485440478e-09
0,0,2016-01-20 00:00:00,-133.51878,68.32029,-5.369488658884845e-09
0,0,2016-01-21 00:00:00,-133.51878,68.32029,-5.899482806215507e-09
0,0,2016-01-22 00:00:00,-133.51878,68.32029,-6.007417940828267e-09
0,0,2016-01-23 00:00:00,-133.51878,68.32029,-6.121295318786564e-09
0,0,2016-01-24 00:00:00,-133.51878,68.32029,-6.230165848750576e-09
0,0,2016-01-25 00:00:00,-133.51878,68.32029,-6.343103347226306e-09
0,0,2016-01-26 00:00:00,-133.51878,68.32029,-6.508807891068034e-09
0,0,2016-01-27 00:00:00,-133.51878,68.32029,-6.672332373102424e-09
0,0,2016-01-28 00:00:00,-133.51878,68.32029,-6.84933240032614e-09
0,0,2016-01-29 00:00:00,-133.51878,68.32029,-6.755178166469458e-09
0,0,2016-01-30 00:00:00,-133.51878,68.32029,-6.4996797016642096e-09
0,0,2016-01-31 00:00:00,-133.51878,68.32029,-6.313739706789314e-09
0,0,2016-02-01 00:00:00,-133.51878,68.32029,-6.145146946951016e-09
0,0,2016-02-02 00:00:00,-133.51878,68.32029,-5.9879023288976315e-09
0,0,2016-02-03 00:00:00,-133.51878,68.32029,-5.885458434926691e-09
0,0,2016-02-04 00:00:00,-133.51878,68.32029,-5.348672741944612e-09
0,0,2016-02-05 00:00:00,-133.51878,68.32029,-5.369488755172135e-09
0,0,2016-02-06 00:00:00,-133.51878,68.32029,-5.34064114721912e-09
0,0,2016-02-07 00:00:00,-133.51878,68.32029,-5.2874471274651615e-09
0,0,2016-02-08 00:00:00,-133.51878,68.32029,-5.295595762625805e-09
0,0,2016-02-09 00:00:00,-133.51878,68.32029,-5.384355147561209e-09
0,0,2016-02-10 00:00:00,-133.51878,68.32029,-5.674101605444586e-09
0,0,2016-02-11 00:00:00,-133.51878,68.32029,-5.935628413499047e-09
0,0,2016-02-12 00:00:00,-133.51878,68.32029,-6.04544457988186e-09
0,0,2016-02-13 00:00:00,-133.51878,68.32029,-6.482831098068161e-09
0,0,2016-02-14 00:00:00,-133.51878,68.32029,-6.387672494032435e-09
0,0,2016-02-15 00:00:00,-133.51878,68.32029,-6.18341993208236e-09
0,0,2016-02-16 00:00:00,-133.51878,68.32029,-5.581742738110381e-09
0,0,2016-02-17 00:00:00,-133.51878,68.32029,-5.476919402744585e-09
0,0,2016-02-18 00:00:00,-133.51878,68.32029,-5.469403504722007e-09
0,0,2016-02-19 00:00:00,-133.51878,68.32029,-5.4641559542630286e-09
0,0,2016-02-20 00:00:00,-133.51878,68.32029,-5.5572080928388715e-09
0,0,2016-02-21 00:00:00,-133.51878,68.32029,-5.855650679313945e-09
0,0,2016-02-22 00:00:00,-133.51878,68.32029,-6.118750692584092e-09
0,0,2016-02-23 00:00:00,-133.51878,68.32029,-6.396192949489219e-09
0,0,2016-02-24 00:00:00,-133.51878,68.32029,-6.432321609680395e-09
0,0,2016-02-25 00:00:00,-133.51878,68.32029,-6.306439536862395e-09
0,0,2016-02-26 00:00:00,-133.51878,68.32029,-5.962289828367692e-09
0,0,2016-02-27 00:00:00,-133.51878,68.32029,-5.730375466037432e-09
0,0,2016-02-28 00:00:00,-133.51878,68.32029,-5.939421418662236e-09
0,0,2016-03-01 00:00:00,-133.51878,68.32029,-6.0724518522407874e-09
0,0,2016-03-02 00:00:00,-133.51878,68.32029,-5.9742731913879196e-09
0,0,2016-03-03 00:00:00,-133.51878,68.32029,-5.691847360025479e-09
0,0,2016-03-04 00:00:00,-133.51878,68.32029,-5.47337396202512e-09
0,0,2016-03-05 00:00:00,-133.51878,68.32029,-5.087062970321443e-09
0,0,2016-03-06 00:00:00,-133.51878,68.32029,-4.774810746062221e-09
0,0,2016-03-07 00:00:00,-133.51878,68.32029,-4.631159325338153e-09
0,0,2016-03-08 00:00:00,-133.51878,68.32029,-4.626889448274705e-09
0,0,2016-03-09 00:00:00,-133.51878,68.32029,-4.877958959711751e-09
0,0,2016-03-10 00:00:00,-133.51878,68.32029,-5.049517230346576e-09
0,0,2016-03-11 00:00:00,-133.51878,68.32029,-5.000163945950918e-09
0,0,2016-03-12 00:00:00,-133.51878,68.32029,-4.993145710459989e-09
0,0,2016-03-13 00:00:00,-133.51878,68.32029,-4.887939354266953e-09
0,0,2016-03-14 00:00:00,-133.51878,68.32029,-4.8663806272677914e-09
0,0,2016-03-15 00:00:00,-133.51878,68.32029,-4.838436614837492e-09
0,0,2016-03-16 00:00:00,-133.51878,68.32029,-4.859889966778494e-09
0,0,2016-03-17 00:00:00,-133.51878,68.32029,-4.7437409605608915e-09
0,0,2016-03-18 00:00:00,-133.51878,68.32029,-4.79685826755683e-09
0,0,2016-03-19 00:00:00,-133.51878,68.32029,-4.849761571102853e-09
0,0,2016-03-20 00:00:00,-133.51878,68.32029,-4.85273614830276e-09
0,0,2016-03-21 00:00:00,-133.51878,68.32029,-4.886768352188649e-09
0,0,2016-03-22 00:00:00,-133.51878,68.32029,-5.016429013807598e-09
0,0,2016-03-23 00:00:00,-133.51878,68.32029,-5.001853247783614e-09
0,0,2016-03-24 00:00:00,-133.51878,68.32029,-5.029847526624088e-09
0,0,2016-03-25 00:00:00,-133.51878,68.32029,-4.9984041443238446e-09
0,0,2016-03-26 00:00:00,-133.51878,68.32029,-5.057901879711623e-09
0,0,2016-03-27 00:00:00,-133.51878,68.32029,-4.950672590740245e-09
0,0,2016-03-28 00:00:00,-133.51878,68.32029,-4.801529558126465e-09
0,0,2016-03-29 00:00:00,-133.51878,68.32029,-4.890837695686071e-09
0,0,2016-03-30 00:00:00,-133.51878,68.32029,-4.702052605744889e-09
0,0,2016-03-31 00:00:00,-133.51878,68.32029,-4.641441325020125e-09
0,0,2016-04-01 00:00:00,-133.51878,68.32029,-4.7381522677967145e-09
0,0,2016-04-02 00:00:00,-133.51878,68.32029,-4.7439194594107496e-09
0,0,2016-04-03 00:00:00,-133.51878,68.32029,-4.824789405764697e-09
0,0,2016-04-04 00:00:00,-133.51878,68.32029,-4.848479837880556e-09
0,0,2016-04-05 00:00:00,-133.51878,68.32029,-4.970103987865931e-09
0,0,2016-04-06 00:00:00,-133.51878,68.32029,-4.976966847849876e-09
0,0,2016-04-07 00:00:00,-133.51878,68.32029,-4.981209345704342e-09
0,0,2016-04-08 00:00:00,-133.51878,68.32029,-5.0215571752236185e-09
0,0,2016-04-09 00:00:00,-133.51878,68.32029,-4.964193193709671e-09
0,0,2016-04-10 00:00:00,-133.51878,68.32029,-4.888574746697846e-09
0,0,2016-04-11 00:00:00,-133.51878,68.32029,-4.706265347428941e-09
0,0,2016-04-12 00:00:00,-133.51878,68.32029,-4.671024214408546e-09
0,0,2016-04-13 00:00:00,-133.51878,68.32029,-4.635540918355272e-09
0,0,2016-04-14 00:00:00,-133.51878,68.32029,-4.744257493622532e-09
0,0,2016-04-15 00:00:00,-133.51878,68.32029,-4.913744233275932e-09
0,0,2016-04-16 00:00:00,-133.51878,68.32029,-5.0988904869027e-09
0,0,2016-04-17 00:00:00,-133.51878,68.32029,-5.173020899574121e-09
0,0,2016-04-18 00:00:00,-133.51878,68.32029,-5.3042436596935185e-09
0,0,2016-04-19 00:00:00,-133.51878,68.32029,-5.508317702919104e-09
0,0,2016-04-20 00:00:00,-133.51878,68.32029,-5.5079868097629385e-09
0,0,2016-04-21 00:00:00,-133.51878,68.32029,-5.657885731053865e-09
0,0,2016-04-22 00:00:00,-133.51878,68.32029,-6.582259624996626e-09
0,0,2016-04-23 00:00:00,-133.51878,68.32029,-2.1109833365486125e-08
0,0,2016-04-24 00:00:00,-133.51878,68.32029,-1.8481924555353273e-08
0,0,2016-04-25 00:00:00,-133.51878,68.32029,-1.9083608178298296e-08
0,0,2016-04-26 00:00:00,-133.51878,68.32029,-1.5876380027873827e-08
0,0,2016-04-27 00:00:00,-133.51878,68.32029,-1.4598082836253203e-08
0,0,2016-04-28 00:00:00,-133.51878,68.32029,-1.324721996764715e-08
0,0,2016-04-29 00:00:00,-133.51878,68.32029,-9.71024428357774e-09
0,0,2016-04-30 00:00:00,-133.51878,68.32029,-1.2371526948917153e-08
0,0,2016-05-01 00:00:00,-133.51878,68.32029,-1.1851838195399733e-08
0,0,2016-05-02 00:00:00,-133.51878,68.32029,-8.99462585614328e-09
0,0,2016-05-03 00:00:00,-133.51878,68.32029,-8.300362889448322e-09
0,0,2016-05-04 00:00:00,-133.51878,68.32029,-1.0557189983572111e-08
0,0,2016-05-05 00:00:00,-133.51878,68.32029,-2.430807945587393e-09
0,0,2016-05-06 00:00:00,-133.51878,68.32029,-6.634871892773761e-09
0,0,2016-05-07 00:00:00,-133.51878,68.32029,-7.027336602812906e-09
0,0,2016-05-08 00:00:00,-133.51878,68.32029,2.6382110367121463e-09
0,0,2016-05-09 00:00:00,-133.51878,68.32029,-1.9979279018117213e-09
0,0,2016-05-10 00:00:00,-133.51878,68.32029,1.340829234675126e-09
0,0,2016-05-11 00:00:00,-133.51878,68.32029,3.175140144263251e-09
0,0,2016-05-12 00:00:00,-133.51878,68.32029,8.940310109758948e-09
0,0,2016-05-13 00:00:00,-133.51878,68.32029,1.590636952217529e-09
0,0,2016-05-14 00:00:00,-133.51878,68.32029,-5.9467000574721216e-09
0,0,2016-05-15 00:00:00,-133.51878,68.32029,-6.7617476107040035e-09
0,0,2016-05-16 00:00:00,-133.51878,68.32029,-6.493404158152074e-09
0,0,2016-05-17 00:00:00,-133.51878,68.32029,4.492639564044557e-09
0,0,2016-05-18 00:00:00,-133.51878,68.32029,1.9949050584450197e-08
0,0,2016-05-19 00:00:00,-133.51878,68.32029,2.2303352231309035e-08
0,0,2016-05-20 00:00:00,-133.51878,68.32029,2.2417106808818092e-08
0,0,2016-05-21 00:00:00,-133.51878,68.32029,1.834792926815863e-08
0,0,2016-05-22 00:00:00,-133.51878,68.32029,9.520257321651978e-09
0,0,2016-05-23 00:00:00,-133.51878,68.32029,1.4329763729564423e-08
0,0,2016-05-24 00:00:00,-133.51878,68.32029,5.358551765238322e-09
0,0,2016-05-25 00:00:00,-133.51878,68.32029,1.7144783483706376e-08
0,0,2016-05-26 00:00:00,-133.51878,68.32029,1.3269250399891353e-08
0,0,2016-05-27 00:00:00,-133.51878,68.32029,2.7093095067544267e-09
0,0,2016-05-28 00:00:00,-133.51878,68.32029,2.7102248575732506e-08
0,0,2016-05-29 00:00:00,-133.51878,68.32029,3.8194209968259325e-08
0,0,2016-05-30 00:00:00,-133.51878,68.32029,3.0778204475675014e-08
0,0,2016-05-31 00:00:00,-133.51878,68.32029,2.400360218161845e-08
0,0,2016-06-01 00:00:00,-133.51878,68.32029,1.2363893727486672e-08
0,0,2016-06-02 00:00:00,-133.51878,68.32029,8.044106123225605e-09
0,0,2016-06-03 00:00:00,-133.51878,68.32029,1.04640988664647e-08
0,0,2016-06-04 00:00:00,-133.51878,68.32029,4.123616945476993e-08
0,0,2016-06-05 00:00:00,-133.51878,68.32029,2.3860116433118397e-08
0,0,2016-06-06 00:00:00,-133.51878,68.32029,3.409898556775567e-08
0,0,2016-06-07 00:00:00,-133.51878,68.32029,3.3886026376267035e-08
0,0,2016-06-08 00:00:00,-133.51878,68.32029,4.506963061739942e-08
0,0,2016-06-09 00:00:00,-133.51878,68.32029,2.2957974676573418e-08
0,0,2016-06-10 00:00:00,-133.51878,68.32029,3.392003349738315e-08
0,0,2016-06-11 00:00:00,-133.51878,68.32029,5.948088999725006e-08
0,0,2016-06-12 00:00:00,-133.51878,68.32029,4.573592050600108e-08
0,0,2016-06-13 00:00:00,-133.51878,68.32029,3.85038118270199e-08
0,0,2016-06-14 00:00:00,-133.51878,68.32029,5.7714556709583477e-08
0,0,2016-06-15 00:00:00,-133.51878,68.32029,3.4473420038356744e-08
0,0,2016-06-16 00:00:00,-133.51878,68.32029,4.0344026640861424e-08
0,0,2016-06-17 00:00:00,-133.51878,68.32029,5.1881070369144134e-08
0,0,2016-06-18 00:00:00,-133.51878,68.32029,4.6282606836087487e-08
0,0,2016-06-19 00:00:00,-133.51878,68.32029,4.794670718431552e-08
0,0,2016-06-20 00:00:00,-133.51878,68.32029,3.707098174379696e-08
0,0,2016-06-21 00:00:00,-133.51878,68.32029,3.743214847840863e-08
0,0,2016-06-22 00:00:00,-133.51878,68.32029,3.045569872568847e-08
0,0,2016-06-23 00:00:00,-133.51878,68.32029,3.954403373520335e-08
0,0,2016-06-24 00:00:00,-133.51878,68.32029,6.804886747099662e-08
0,0,2016-06-25 00:00:00,-133.51878,68.32029,5.876427463620521e-08
0,0,2016-06-26 00:00:00,-133.51878,68.32029,5.996217239024067e-08
0,0,2016-06-27 00:00:00,-133.51878,68.32029,6.296988450972462e-08
0,0,2016-06-28 00:00:00,-133.51878,68.32029,6.08909871224197e-08
0,0,2016-06-29 00:00:00,-133.51878,68.32029,5.952573270139489e-08
0,0,2016-06-30 00:00:00,-133.51878,68.32029,6.775079082210145e-08
0,0,2016-07-01 00:00:00,-133.51878,68.32029,4.163639981275439e-08
0,0,2016-07-02 00:00:00,-133.51878,68.32029,4.422623351842972e-08
0,0,2016-07-03 00:00:00,-133.51878,68.32029,5.636700764431858e-08
0,0,2016-07-04 00:00:00,-133.51878,68.32029,5.1250009101404255e-08
0,0,2016-07-05 00:00:00,-133.51878,68.32029,5.878413610091753e-08
0,0,2016-07-06 00:00:00,-133.51878,68.32029,5.676267301699095e-08
0,0,2016-07-07 00:00:00,-133.51878,68.32029,4.7634208631592044e-08
0,0,2016-07-08 00:00:00,-133.51878,68.32029,3.890731479502333e-08
0,0,2016-07-09 00:00:00,-133.51878,68.32029,4.779475622042659e-08
0,0,2016-07-10 00:00:00,-133.51878,68.32029,6.222552121368504e-08
0,0,2016-07-11 00:00:00,-133.51878,68.32029,5.815780690408446e-08
0,0,2016-07-12 00:00:00,-133.51878,68.32029,4.894200858171026e-08
0,0,2016-07-13 00:00:00,-133.51878,68.32029,3.8512598575524986e-08
0,0,2016-07-14 00:00:00,-133.51878,68.32029,3.3981983499273834e-08
0,0,2016-07-15 00:00:00,-133.51878,68.32029,4.847893848687751e-08
0,0,2016-07-16 00:00:00,-133.51878,68.32029,3.653184989293324e-08
0,0,2016-07-17 00:00:00,-133.51878,68.32029,2.8926737585462096e-08
0,0,2016-07-18 00:00:00,-133.51878,68.32029,1.72866978125225e-08
0,0,2016-07-19 00:00:00,-133.51878,68.32029,8.406863840736946e-09
0,0,2016-07-20 00:00:00,-133.51878,68.32029,2.0200132315550734e-08
0,0,2016-07-21 00:00:00,-133.51878,68.32029,1.7614828834737143e-08
0,0,2016-07-22 00:00:00,-133.51878,68.32029,1.886981534797604e-08
0,0,2016-07-23 00:00:00,-133.51878,68.32029,2.958084153929994e-08
0,0,2016-07-24 00:00:00,-133.51878,68.32029,2.6614833819713984e-08
0,0,2016-07-25 00:00:00,-133.51878,68.32029,3.918915767133529e-08
0,0,2016-07-26 00:00:00,-133.51878,68.32029,3.653144919763781e-08
0,0,2016-07-27 00:00:00,-133.51878,68.32029,2.0300912901209415e-08
0,0,2016-07-28 00:00:00,-133.51878,68.32029,2.1146137068205403e-08
0,0,2016-07-29 00:00:00,-133.51878,68.32029,2.0161172180004235e-08
0,0,2016-07-30 00:00:00,-133.51878,68.32029,3.4842200022539755e-10
0,0,2016-07-31 00:00:00,-133.51878,68.32029,1.0694959321980208e-08
0,0,2016-08-01 00:00:00,-133.51878,68.32029,1.9068531951256596e-08
0,0,2016-08-02 00:00:00,-133.51878,68.32029,1.659691363458812e-08
0,0,2016-08-03 00:00:00,-133.51878,68.32029,-5.870268482947862e-09
0,0,2016-08-04 00:00:00,-133.51878,68.32029,-1.6583856740990363e-08
0,0,2016-08-05 00:00:00,-133.51878,68.32029,2.35652894532514e-08
0,0,2016-08-06 00:00:00,-133.51878,68.32029,1.5837308663141383e-08
0,0,2016-08-07 00:00:00,-133.51878,68.32029,1.3223785311707057e-08
0,0,2016-08-08 00:00:00,-133.51878,68.32029,1.0527195553998215e-08
0,0,2016-08-09 00:00:00,-133.51878,68.32029,2.4031619193653172e-09
0,0,2016-08-10 00:00:00,-133.51878,68.32029,-2.039272185374441e-08
0,0,2016-08-11 00:00:00,-133.51878,68.32029,-2.863762953429143e-10
0,0,2016-08-12 00:00:00,-133.51878,68.32029,5.613376477575133e-09
0,0,2016-08-13 00:00:00,-133.51878,68.32029,7.476252453697877e-09
0,0,2016-08-14 00:00:00,-133.51878,68.32029,-5.390458793460173e-09
0,0,2016-08-15 00:00:00,-133.51878,68.32029,-1.2301170648964702e-08
0,0,2016-08-16 00:00:00,-133.51878,68.32029,-2.5684141409220066e-09
0,0,2016-08-17 00:00:00,-133.51878,68.32029,-5.9812876266340765e-09
0,0,2016-08-18 00:00:00,-133.51878,68.32029,1.2472439334098193e-08
0,0,2016-08-19 00:00:00,-133.51878,68.32029,-9.484384904502927e-10
0,0,2016-08-20 00:00:00,-133.51878,68.32029,-1.022776840741541e-09
0,0,2016-08-21 00:00:00,-133.51878,68.32029,4.457003028475153e-10
0,0,2016-08-22 00:00:00,-133.51878,68.32029,-7.684666792232611e-10
0,0,2016-08-23 00:00:00,-133.51878,68.32029,-4.1875156755683425e-09
0,0,2016-08-24 00:00:00,-133.51878,68.32029,2.632220861298131e-09
0,0,2016-08-25 00:00:00,-133.51878,68.32029,2.9536416109395912e-09
0,0,2016-08-26 00:00:00,-133.51878,68.32029,-8.321842957391164e-09
0,0,2016-08-27 00:00:00,-133.51878,68.32029,-8.142085595131204e-09
0,0,2016-08-28 00:00:00,-133.51878,68.32029,-3.3981198031878298e-09
0,0,2016-08-29 00:00:00,-133.51878,68.32029,-2.2275137741046673e-08
0,0,2016-08-30 00:00:00,-133.51878,68.32029,-5.61293088323551e-09
0,0,2016-08-31 00:00:00,-133.51878,68.32029,-9.788925955167868e-09
0,0,2016-09-01 00:00:00,-133.51878,68.32029,-1.1816150920617102e-09
0,0,2016-09-02 00:00:00,-133.51878,68.32029,-6.078779924715972e-09
0,0,2016-09-03 00:00:00,-133.51878,68.32029,-1.363265789788113e-08
0,0,2016-09-04 00:00:00,-133.51878,68.32029,-1.6071977705229248e-08
0,0,2016-09-05 00:00:00,-133.51878,68.32029,-2.026430659650722e-08
0,0,2016-09-06 00:00:00,-133.51878,68.32029,-1.538960909650309e-08
0,0,2016-09-07 00:00:00,-133.51878,68.32029,-1.3236113233111544e-08
0,0,2016-09-08 00:00:00,-133.51878,68.32029,-6.086107098186768e-09
0,0,2016-09-09 00:00:00,-133.51878,68.32029,-4.853526658101247e-09
0,0,2016-09-10 00:00:00,-133.51878,68.32029,-1.403076530833467e-08
0,0,2016-09-11 00:00:00,-133.51878,68.32029,-1.7385422122393947e-08
0,0,2016-09-12 00:00:00,-133.51878,68.32029,-1.9588431182657035e-08
0,0,2016-09-13 00:00:00,-133.51878,68.32029,-1.555850092314611e-08
0,0,2016-09-14 00:00:00,-133.51878,68.32029,-2.038462180043794e-08
0,0,2016-09-15 00:00:00,-133.51878,68.32029,-1.2349150912887476e-08
0,0,2016-09-16 00:00:00,-133.51878,68.32029,-1.3733735516433806e-08
0,0,2016-09-17 00:00:00,-133.51878,68.32029,-1.4432431905337456e-08
0,0,2016-09-18 00:00:00,-133.51878,68.32029,-2.0209942769519693e-08
0,0,2016-09-19 00:00:00,-133.51878,68.32029,-2.9971831194427103e-09
0,0,2016-09-20 00:00:00,-133.51878,68.32029,-1.1314194195514271e-08
0,0,2016-09-21 00:00:00,-133.51878,68.32029,-9.22962497640742e-09
0,0,2016-09-22 00:00:00,-133.51878,68.32029,-1.1950709308258115e-08
0,0,2016-09-23 00:00:00,-133.51878,68.32029,-1.3562181516413446e-08
0,0,2016-09-24 00:00:00,-133.51878,68.32029,-1.0458397273924365e-08
0,0,2016-09-25 00:00:00,-133.51878,68.32029,-1.6796908648430146e-08
0,0,2016-09-26 00:00:00,-133.51878,68.32029,-1.702858189205862e-08
0,0,2016-09-27 00:00:00,-133.51878,68.32029,-1.8663708323952264e-08
0,0,2016-09-28 00:00:00,-133.51878,68.32029,-1.811796269428018e-08
0,0,2016-09-29 00:00:00,-133.51878,68.32029,-1.929214323447079e-08
0,0,2016-09-30 00:00:00,-133.51878,68.32029,-1.9673905296362737e-08
0,0,2016-10-01 00:00:00,-133.51878,68.32029,-1.8860135134497478e-08
0,0,2016-10-02 00:00:00,-133.51878,68.32029,-1.775386128692722e-08
0,0,2016-10-03 00:00:00,-133.51878,68.32029,-1.9969875290053128e-08
0,0,2016-10-04 00:00:00,-133.51878,68.32029,-1.7425974922669735e-08
0,0,2016-10-05 00:00:00,-133.51878,68.32029,-1.8117661509741782e-08
0,0,2016-10-06 00:00:00,-133.51878,68.32029,-2.1122185987274546e-08
0,0,2016-10-07 00:00:00,-133.51878,68.32029,-2.1385272485755935e-08
0,0,2016-10-08 00:00:00,-133.51878,68.32029,-2.0220871672758388e-08
0,0,2016-10-09 00:00:00,-133.51878,68.32029,-2.109930368365206e-08
0,0,2016-10-10 00:00:00,-133.51878,68.32029,-2.0581845856305882e-08
0,0,2016-10-11 00:00:00,-133.51878,68.32029,-1.9961388950834767e-08
0,0,2016-10-12 00:00:00,-133.51878,68.32029,-2.408858856065456e-08
0,0,2016-10-13 00:00:00,-133.51878,68.32029,-2.562828411133544e-08
0,0,2016-10-14 00:00:00,-133.51878,68.32029,-2.601986611186917e-08
0,0,2016-10-15 00:00:00,-133.51878,68.32029,-2.7744670661105462e-08
0,0,2016-10-16 00:00:00,-133.51878,68.32029,-1.0582247688982761e-08
0,0,2016-10-17 00:00:00,-133.51878,68.32029,-9.983577294084576e-09
0,0,2016-10-18 00:00:00,-133.51878,68.32029,-1.017992167598817e-08
0,0,2016-10-19 00:00:00,-133.51878,68.32029,-1.0325261526258839e-08
0,0,2016-10-20 00:00:00,-133.51878,68.32029,-1.0438341689767017e-08
0,0,2016-10-21 00:00:00,-133.51878,68.32029,-1.0673062721547176e-08
0,0,2016-10-22 00:00:00,-133.51878,68.32029,-1.032202247087187e-08
0,0,2016-10-23 00:00:00,-133.51878,68.32029,-1.0585998320342038e-08
0,0,2016-10-24 00:00:00,-133.51878,68.32029,-1.0404734925840038e-08
0,0,2016-10-25 00:00:00,-133.51878,68.32029,-1.01033726320742e-08
0,0,2016-10-26 00:00:00,-133.51878,68.32029,-1.0409475138904994e-08
0,0,2016-10-27 00:00:00,-133.51878,68.32029,-1.0281374527702378e-08
0,0,2016-10-28 00:00:00,-133.51878,68.32029,-1.0798158901845772e-08
0,0,2016-10-29 00:00:00,-133.51878,68.32029,-1.1020196614139468e-08
0,0,2016-10-30 00:00:00,-133.51878,68.32029,-1.0906245467148632e-08
0,0,2016-10-31 00:00:00,-133.51878,68.32029,-1.0906130027731966e-08
0,0,2016-11-01 00:00:00,-133.51878,68.32029,-8.243173347061917e-09
0,0,2016-11-02 00:00:00,-133.51878,68.32029,-7.739483518806677e-09
0,0,2016-11-03 00:00:00,-133.51878,68.32029,-7.35064298262379e-09
0,0,2016-11-04 00:00:00,-133.51878,68.32029,-7.812158018209797e-09
0,0,2016-11-05 00:00:00,-133.51878,68.32029,-8.00992362863931e-09
0,0,2016-11-06 00:00:00,-133.51878,68.32029,-8.015466705009024e-09
0,0,2016-11-07 00:00:00,-133.51878,68.32029,-8.303732588351874e-09
0,0,2016-11-08 00:00:00,-133.51878,68.32029,-8.438584921315805e-09
0,0,2016-11-09 00:00:00,-133.51878,68.32029,-8.709243990160856e-09
0,0,2016-11-10 00:00:00,-133.51878,68.32029,-1.1688763613504169e-08
0,0,2016-11-11 00:00:00,-133.51878,68.32029,-1.1557822581573956e-08
0,0,2016-11-12 00:00:00,-133.51878,68.32029,-1.1114396367083577e-08
0,0,2016-11-13 00:00:00,-133.51878,68.32029,-8.528594063543548e-09
0,0,2016-11-14 00:00:00,-133.51878,68.32029,-8.375064820838949e-09
0,0,2016-11-15 00:00:00,-133.51878,68.32029,-8.607933582352903e-09
0,0,2016-11-16 00:00:00,-133.51878,68.32029,-1.1461100501758447e-08
0,0,2016-11-17 00:00:00,-133.51878,68.32029,-1.1168144759658495e-08
0,0,2016-11-18 00:00:00,-133.51878,68.32029,-8.23860575391417e-09
0,0,2016-11-19 00:00:00,-133.51878,68.32029,-7.903074607518511e-09
0,0,2016-11-20 00:00:00,-133.51878,68.32029,-6.013699947635897e-09
0,0,2016-11-21 00:00:00,-133.51878,68.32029,-6.142423725910383e-09
0,0,2016-11-22 00:00:00,-133.51878,68.32029,-6.096365061884272e-09
0,0,2016-11-23 00:00:00,-133.51878,68.32029,-6.140749694802344e-09
0,0,2016-11-24 00:00:00,-133.51878,68.32029,-5.91477531295657e-09
0,0,2016-11-25 00:00:00,-133.51878,68.32029,-5.904545996746187e-09
0,0,2016-11-26 00:00:00,-133.51878,68.32029,-6.0710622456143085e-09
0,0,2016-11-27 00:00:00,-133.51878,68.32029,-6.061394433109709e-09
0,0,2016-11-28 00:00:00,-133.51878,68.32029,-5.909941386245697e-09
0,0,2016-11-29 00:00:00,-133.51878,68.32029,-5.9770424018384914e-09
0,0,2016-11-30 00:00:00,-133.51878,68.32029,-5.978694658923779e-09
0,0,2016-12-01 00:00:00,-133.51878,68.32029,-6.102233477571366e-09
0,0,2016-12-02 00:00:00,-133.51878,68.32029,-6.233585859624506e-09
0,0,2016-12-03 00:00:00,-133.51878,68.32029,-6.18582972832626e-09
0,0,2016-12-04 00:00:00,-133.51878,68.32029,-5.970120341184344e-09
0,0,2016-12-05 00:00:00,-133.51878,68.32029,-5.743745949482892e-09
0,0,2016-12-06 00:00:00,-133.51878,68.32029,-5.544094206791534e-09
0,0,2016-12-07 00:00:00,-133.51878,68.32029,-4.594822155232058e-09
0,0,2016-12-08 00:00:00,-133.51878,68.32029,-4.6053120217358364e-09
0,0,2016-12-09 00:00:00,-133.51878,68.32029,-5.239517143454315e-09
0,0,2016-12-10 00:00:00,-133.51878,68.32029,-5.678624642891001e-09
0,0,2016-12-11 00:00:00,-133.51878,68.32029,-6.378658275991468e-09
0,0,2016-12-12 00:00:00,-133.51878,68.32029,-6.277367075322335e-09
0,0,2016-12-13 00:00:00,-133.51878,68.32029,-5.927214712478611e-09
0,0,2016-12-14 00:00:00,-133.51878,68.32029,-5.118967375243389e-09
0,0,2016-12-15 00:00:00,-133.51878,68.32029,-5.281437895586038e-09
0,0,2016-12-16 00:00:00,-133.51878,68.32029,-5.246873299000218e-09
0,0,2016-12-17 00:00:00,-133.51878,68.32029,-5.0882912996073324e-09
0,0,2016-12-18 00:00:00,-133.51878,68.32029,-5.020745576205367e-09
0,0,2016-12-19 00:00:00,-133.51878,68.32029,-5.033142923422064e-09
0,0,2016-12-20 00:00:00,-133.51878,68.32029,-4.969715869123855e-09
0,0,2016-12-21 00:00:00,-133.51878,68.32029,-4.839012875162724e-09
0,0,2016-12-22 00:00:00,-133.51878,68.32029,-4.784733568868919e-09
0,0,2016-12-23 00:00:00,-133.51878,68.32029,-4.815080394593443e-09
0,0,2016-12-24 00:00:00,-133.51878,68.32029,-4.9087875441119915e-09
0,0,2016-12-25 00:00:00,-133.51878,68.32029,-4.97321121555758e-09
0,0,2016-12-26 00:00:00,-133.51878,68.32029,-4.901637213567602e-09
0,0,2016-12-27 00:00:00,-133.51878,68.32029,-4.780250244994777e-09
0,0,2016-12-28 00:00:00,-133.51878,68.32029,-4.800275804372687e-09
0,0,2016-12-29 00:00:00,-133.51878,68.32029,-5.189234779504904e-09
0,0,2016-12-30 00:00:00,-133.51878,68.32029,-5.225032241380193e-09
0,0,2016-12-31 00:00:00,-133.51878,68.32029,-5.247479891791866e-09
0,0,2017-01-01 00:00:00,-133.51878,68.32029,-5.277217598169307e-09
0,0,2017-01-02 00:00:00,-133.51878,68.32029,-5.434708452362999e-09
0,0,2017-01-03 00:00:00,-133.51878,68.32029,-5.214322525104199e-09
0,0,2017-01-04 00:00:00,-133.51878,68.32029,-4.995914844107086e-09
0,0,2017-01-05 00:00:00,-133.51878,68.32029,-4.899533897204199e-09
0,0,2017-01-06 00:00:00,-133.51878,68.32029,-5.25726053644948e-09
0,0,2017-01-07 00:00:00,-133.51878,68.32029,-5.6772534825047155e-09
0,0,2017-01-08 00:00:00,-133.51878,68.32029,-5.979911759809949e-09
0,0,2017-01-09 00:00:00,-133.51878,68.32029,-6.6934152485106604e-09
0,0,2017-01-10 00:00:00,-133.51878,68.32029,-6.6053281749606115e-09
0,0,2017-01-11 00:00:00,-133.51878,68.32029,-6.419161130312529e-09
0,0,2017-01-12 00:00:00,-133.51878,68.32029,-5.5436787116745e-09
0,0,2017-01-13 00:00:00,-133.51878,68.32029,-5.342656536350466e-09
0,0,2017-01-14 00:00:00,-133.51878,68.32029,-5.220669287354671e-09
0,0,2017-01-15 00:00:00,-133.51878,68.32029,-5.086318312371259e-09
0,0,2017-01-16 00:00:00,-133.51878,68.32029,-4.7132651398172965e-09
0,0,2017-01-17 00:00:00,-133.51878,68.32029,-4.537128130409143e-09
0,0,2017-01-18 00:00:00,-133.51878,68.32029,-4.432249013808985e-09
0,0,2017-01-19 00:00:00,-133.51878,68.32029,-4.448335213417185e-09
0,0,2017-01-20 00:00:00,-133.51878,68.32029,-4.518307961897101e-09
0,0,2017-01-21 00:00:00,-133.51878,68.32029,-4.56234137714736e-09
0,0,2017-01-22 00:00:00,-133.51878,68.32029,-4.586844651500965e-09
0,0,2017-01-23 00:00:00,-133.51878,68.32029,-4.62782215024237e-09
0,0,2017-01-24 00:00:00,-133.51878,68.32029,-4.719496427286014e-09
0,0,2017-01-25 00:00:00,-133.51878,68.32029,-4.9792985994037115e-09
0,0,2017-01-26 00:00:00,-133.51878,68.32029,-5.177577695275301e-09
0,0,2017-01-27 00:00:00,-133.51878,68.32029,-5.170616770057898e-09
0,0,2017-01-28 00:00:00,-133.51878,68.32029,-5.237399868872616e-09
0,0,2017-01-29 00:00:00,-133.51878,68.32029,-5.075346903302715e-09
0,0,2017-01-30 00:00:00,-133.51878,68.32029,-4.983077374171548e-09
0,0,2017-01-31 00:00:00,-133.51878,68.32029,-4.960955580704293e-09
0,0,2017-02-01 00:00:00,-133.51878,68.32029,-5.120042565811985e-09
0,0,2017-02-02 00:00:00,-133.51878,68.32029,-5.373099137893731e-09
0,0,2017-02-03 00:00:00,-133.51878,68.32029,-5.433184036425625e-09
0,0,2017-02-04 00:00:00,-133.51878,68.32029,-5.381120718668901e-09
0,0,2017-02-05 00:00:00,-133.51878,68.32029,-5.363506629156384e-09
0,0,2017-02-06 00:00:00,-133.51878,68.32029,-5.440355238281927e-09
0,0,2017-02-07 00:00:00,-133.51878,68.32029,-5.262341817786289e-09
0,0,2017-02-08 00:00:00,-133.51878,68.32029,-5.0242711520804846e-09
0,0,2017-02-09 00:00:00,-133.51878,68.32029,-4.71184193332872e-09
0,0,2017-02-10 00:00:00,-133.51878,68.32029,-4.477556258187027e-09
0,0,2017-02-11 00:00:00,-133.51878,68.32029,-4.3145919324097204e-09
0,0,2017-02-12 00:00:00,-133.51878,68.32029,-4.261253962775341e-09
0,0,2017-02-13 00:00:00,-133.51878,68.32029,-4.219295846236639e-09
0,0,2017-02-14 00:00:00,-133.51878,68.32029,-4.30263960379812e-09
0,0,2017-02-15 00:00:00,-133.51878,68.32029,-4.391122075067999e-09
0,0,2017-02-16 00:00:00,-133.51878,68.32029,-4.3320859090008265e-09
0,0,2017-02-17 00:00:00,-133.51878,68.32029,-4.22421474317695e-09
0,0,2017-02-18 00:00:00,-133.51878,68.32029,-4.20188489379869e-09
0,0,2017-02-19 00:00:00,-133.51878,68.32029,-4.216775259039791e-09
0,0,2017-02-20 00:00:00,-133.51878,68.32029,-4.222173131587323e-09
0,0,2017-02-21 00:00:00,-133.51878,68.32029,-4.171718776619973e-09
0,0,2017-02-22 00:00:00,-133.51878,68.32029,-4.02880655955485e-09
0,0,2017-02-23 00:00:00,-133.51878,68.32029,-4.1878446495692425e-09
0,0,2017-02-24 00:00:00,-133.51878,68.32029,-4.07362741175895e-09
0,0,2017-02-25 00:00:00,-133.51878,68.32029,-3.958612949365427e-09
0,0,2017-02-26 00:00:00,-133.51878,68.32029,-3.834337073806193e-09
0,0,2017-02-27 00:00:00,-133.51878,68.32029,-3.796800972657087e-09
0,0,2017-02-28 00:00:00,-133.51878,68.32029,-3.8675830397318015e-09
0,0,2017-03-01 00:00:00,-133.51878,68.32029,-3.89978319901536e-09
0,0,2017-03-02 00:00:00,-133.51878,68.32029,-4.012401196841671e-09
0,0,2017-03-03 00:00:00,-133.51878,68.32029,-3.88433439002297e-09
0,0,2017-03-04 00:00:00,-133.51878,68.32029,-3.806055559533142e-09
0,0,2017-03-05 00:00:00,-133.51878,68.32029,-3.847689213262495e-09
0,0,2017-03-06 00:00:00,-133.51878,68.32029,-3.827496114060258e-09
0,0,2017-03-07 00:00:00,-133.51878,68.32029,-3.790330195294681e-09
0,0,2017-03-08 00:00:00,-133.51878,68.32029,-3.8465776287839925e-09
0,0,2017-03-09 00:00:00,-133.51878,68.32029,-3.9457255079393014e-09
0,0,2017-03-10 00:00:00,-133.51878,68.32029,-4.03889368474139e-09
0,0,2017-03-11 00:00:00,-133.51878,68.32029,-4.0689647140984335e-09
0,0,2017-03-12 00:00:00,-133.51878,68.32029,-3.935669516763251e-09
0,0,2017-03-13 00:00:00,-133.51878,68.32029,-3.79408104384549e-09
0,0,2017-03-14 00:00:00,-133.51878,68.32029,-3.630393094519011e-09
0,0,2017-03-15 00:00:00,-133.51878,68.32029,-3.519630839135339e-09
0,0,2017-03-16 00:00:00,-133.51878,68.32029,-3.5233806699418403e-09
0,0,2017-03-17 00:00:00,-133.51878,68.32029,-3.492073024122764e-09
0,0,2017-03-18 00:00:00,-133.51878,68.32029,-3.5345966888634353e-09
0,0,2017-03-19 00:00:00,-133.51878,68.32029,-3.482924872214075e-09
0,0,2017-03-20 00:00:00,-133.51878,68.32029,-3.569427802320987e-09
0,0,2017-03-21 00:00:00,-133.51878,68.32029,-3.64579902260543e-09
0,0,2017-03-22 00:00:00,-133.51878,68.32029,-3.781374309944667e-09
0,0,2017-03-23 00:00:00,-133.51878,68.32029,-3.829540042194349e-09
0,0,2017-03-24 00:00:00,-133.51878,68.32029,-3.858865420337922e-09
0,0,2017-03-25 00:00:00,-133.51878,68.32029,-3.752968066095254e-09
0,0,2017-03-26 00:00:00,-133.51878,68.32029,-3.6813649220538123e-09
0,0,2017-03-27 00:00:00,-133.51878,68.32029,-3.8187510405833265e-09
0,0,2017-03-28 00:00:00,-133.51878,68.32029,-3.846294591927942e-09
0,0,2017-03-29 00:00:00,-133.51878,68.32029,-3.8282511134633275e-09
0,0,2017-03-30 00:00:00,-133.51878,68.32029,-3.919272735142815e-09
0,0,2017-03-31 00:00:00,-133.51878,68.32029,-3.991024210140966e-09
0,0,2017-04-01 00:00:00,-133.51878,68.32029,-4.073478003788995e-09
0,0,2017-04-02 00:00:00,-133.51878,68.32029,-4.096096053066895e-09
0,0,2017-04-03 00:00:00,-133.51878,68.32029,-4.3238890863282585e-09
0,0,2017-04-04 00:00:00,-133.51878,68.32029,-4.229725680853204e-09
0,0,2017-04-05 00:00:00,-133.51878,68.32029,-4.089522533980613e-09
0,0,2017-04-06 00:00:00,-133.51878,68.32029,-4.142265158416991e-09
0,0,2017-04-07 00:00:00,-133.51878,68.32029,-4.29747161144539e-09
0,0,2017-04-08 00:00:00,-133.51878,68.32029,-4.492421780584083e-09
0,0,2017-04-09 00:00:00,-133.51878,68.32029,-4.655380657335065e-09
0,0,2017-04-10 00:00:00,-133.51878,68.32029,-4.611409748024151e-09
0,0,2017-04-11 00:00:00,-133.51878,68.32029,-4.407546221922343e-09
0,0,2017-04-12 00:00:00,-133.51878,68.32029,-4.580184990545299e-09
0,0,2017-04-13 00:00:00,-133.51878,68.32029,-4.543567146241891e-09
0,0,2017-04-14 00:00:00,-133.51878,68.32029,-4.353920669121616e-09
0,0,2017-04-15 00:00:00,-133.51878,68.32029,-4.362465187321983e-09
0,0,2017-04-16 00:00:00,-133.51878,68.32029,-4.506631859268721e-09
0,0,2017-04-17 00:00:00,-133.51878,68.32029,-4.527848538987925e-09
0,0,2017-04-18 00:00:00,-133.51878,68.32029,-4.408404091006747e-09
0,0,2017-04-19 00:00:00,-133.51878,68.32029,-4.490170200233092e-09
0,0,2017-04-20 00:00:00,-133.51878,68.32029,-4.6186337284610405e-09
0,0,2017-04-21 00:00:00,-133.51878,68.32029,-4.847975097015224e-09
0,0,2017-04-22 00:00:00,-133.51878,68.32029,-4.83418220835044e-09
0,0,2017-04-23 00:00:00,-133.51878,68.32029,-4.5223281238832175e-09
0,0,2017-04-24 00:00:00,-133.51878,68.32029,-4.402946284538102e-09
0,0,2017-04-25 00:00:00,-133.51878,68.32029,-4.445571331229989e-09
0,0,2017-04-26 00:00:00,-133.51878,68.32029,-4.6041792663718e-09
0,0,2017-04-27 00:00:00,-133.51878,68.32029,-5.0793164609039076e-09
0,0,2017-04-28 00:00:00,-133.51878,68.32029,-5.21075376084112e-09
0,0,2017-04-29 00:00:00,-133.51878,68.32029,-5.543952127755823e-09
0,0,2017-04-30 00:00:00,-133.51878,68.32029,-6.322276993148134e-09
0,0,2017-05-01 00:00:00,-133.51878,68.32029,-7.2798913971698675e-09
0,0,2017-05-02 00:00:00,-133.51878,68.32029,-2.2362860873322314e-08
0,0,2017-05-03 00:00:00,-133.51878,68.32029,-1.618358451331902e-08
0,0,2017-05-04 00:00:00,-133.51878,68.32029,-1.60418205608929e-08
0,0,2017-05-05 00:00:00,-133.51878,68.32029,-1.610416707893987e-08
0,0,2017-05-06 00:00:00,-133.51878,68.32029,-8.50610747654587e-09
0,0,2017-05-07 00:00:00,-133.51878,68.32029,-1.1945174453437374e-08
0,0,2017-05-08 00:00:00,-133.51878,68.32029,-7.402779864461136e-09
0,0,2017-05-09 00:00:00,-133.51878,68.32029,-1.3101140311238608e-08
0,0,2017-05-10 00:00:00,-133.51878,68.32029,-1.2772760633376499e-08
0,0,2017-05-11 00:00:00,-133.51878,68.32029,-8.06191582987818e-09
0,0,2017-05-12 00:00:00,-133.51878,68.32029,-3.0851774767215457e-10
0,0,2017-05-13 00:00:00,-133.51878,68.32029,-2.579909172037395e-09
0,0,2017-05-14 00:00:00,-133.51878,68.32029,3.4987937882394158e-09
0,0,2017-05-15 00:00:00,-133.51878,68.32029,6.444645767108614e-09
0,0,2017-05-16 00:00:00,-133.51878,68.32029,9.94506995076411e-10
0,0,2017-05-17 00:00:00,-133.51878,68.32029,8.83140283292919e-09
0,0,2017-05-18 00:00:00,-133.51878,68.32029,7.663034288836498e-09
0,0,2017-05-19 00:00:00,-133.51878,68.32029,7.791535954578875e-09
0,0,2017-05-20 00:00:00,-133.51878,68.32029,1.4010175864245324e-08
0,0,2017-05-21 00:00:00,-133.51878,68.32029,4.749855210908919e-09
0,0,2017-05-22 00:00:00,-133.51878,68.32029,-6.3585133362418494e-09
0,0,2017-05-23 00:00:00,-133.51878,68.32029,4.936510669227554e-09
0,0,2017-05-24 00:00:00,-133.51878,68.32029,2.6368248315577882e-08
0,0,2017-05-25 00:00:00,-133.51878,68.32029,6.1552649624331305e-09
0,0,2017-05-26 00:00:00,-133.51878,68.32029,3.7162455215742027e-10
0,0,2017-05-27 00:00:00,-133.51878,68.32029,3.594339388223693e-08
0,0,2017-05-28 00:00:00,-133.51878,68.32029,3.9655084725094243e-08
0,0,2017-05-29 00:00:00,-133.51878,68.32029,2.4998147344996563e-08
0,0,2017-05-30 00:00:00,-133.51878,68.32029,1.3131685291662152e-08
0,0,2017-05-31 00:00:00,-133.51878,68.32029,1.0819710824314677e-08
0,0,2017-06-01 00:00:00,-133.51878,68.32029,2.735186080826333e-08
0,0,2017-06-02 00:00:00,-133.51878,68.32029,3.0751236630920496e-08
0,0,2017-06-03 00:00:00,-133.51878,68.32029,3.694392722437972e-08
0,0,2017-06-04 00:00:00,-133.51878,68.32029,3.237918783463431e-08
0,0,2017-06-05 00:00:00,-133.51878,68.32029,3.3315871748220526e-08
0,0,2017-06-06 00:00:00,-133.51878,68.32029,3.4027296168954174e-08
0,0,2017-06-07 00:00:00,-133.51878,68.32029,5.176982294359255e-08
0,0,2017-06-08 00:00:00,-133.51878,68.32029,3.265741504685352e-08
0,0,2017-06-09 00:00:00,-133.51878,68.32029,2.555909538102745e-08
0,0,2017-06-10 00:00:00,-133.51878,68.32029,3.184517411796043e-08
0,0,2017-06-11 00:00:00,-133.51878,68.32029,2.8517145650828267e-08
0,0,2017-06-12 00:00:00,-133.51878,68.32029,3.293127342332066e-08
0,0,2017-06-13 00:00:00,-133.51878,68.32029,4.84742635028356e-08
0,0,2017-06-14 00:00:00,-133.51878,68.32029,5.685306063449975e-08
0,0,2017-06-15 00:00:00,-133.51878,68.32029,5.687994172787644e-08
0,0,2017-06-16 00:00:00,-133.51878,68.32029,5.564554063826803e-08
0,0,2017-06-17 00:00:00,-133.51878,68.32029,5.281064180383097e-08
0,0,2017-06-18 00:00:00,-133.51878,68.32029,4.476502867771241e-08
0,0,2017-06-19 00:00:00,-133.51878,68.32029,5.6126389409614966e-08
0,0,2017-06-20 00:00:00,-133.51878,68.32029,5.845490507277825e-08
0,0,2017-06-21 00:00:00,-133.51878,68.32029,5.100147730770119e-08
0,0,2017-06-22 00:00:00,-133.51878,68.32029,4.7221224617694993e-08
0,0,2017-06-23 00:00:00,-133.51878,68.32029,5.365947139824791e-08
0,0,2017-06-24 00:00:00,-133.51878,68.32029,5.0611528008268853e-08
0,0,2017-06-25 00:00:00,-133.51878,68.32029,2.7952406238728998e-08
0,0,2017-06-26 00:00:00,-133.51878,68.32029,2.1765082067977825e-09
0,0,2017-06-27 00:00:00,-133.51878,68.32029,7.185909267846537e-09
0,0,2017-06-28 00:00:00,-133.51878,68.32029,6.265824096851906e-08
0,0,2017-06-29 00:00:00,-133.51878,68.32029,7.023940530333401e-08
0,0,2017-06-30 00:00:00,-133.51878,68.32029,6.214609442773694e-08
0,0,2017-07-01 00:00:00,-133.51878,68.32029,6.110880193950187e-08
0,0,2017-07-02 00:00:00,-133.51878,68.32029,6.278181908057258e-08
0,0,2017-07-03 00:00:00,-133.51878,68.32029,3.089091428829507e-08
0,0,2017-07-04 00:00:00,-133.51878,68.32029,6.287327812939488e-08
0,0,2017-07-05 00:00:00,-133.51878,68.32029,5.062661327742829e-08
0,0,2017-07-06 00:00:00,-133.51878,68.32029,4.8087784990358794e-08
0,0,2017-07-07 00:00:00,-133.51878,68.32029,5.3298889454566e-08
0,0,2017-07-08 00:00:00,-133.51878,68.32029,4.540512199627523e-08
0,0,2017-07-09 00:00:00,-133.51878,68.32029,5.350081515729617e-08
0,0,2017-07-10 00:00:00,-133.51878,68.32029,5.1033431086691314e-08
0,0,2017-07-11 00:00:00,-133.51878,68.32029,5.3512715957553855e-08
0,0,2017-07-12 00:00:00,-133.51878,68.32029,5.4270558747596045e-08
0,0,2017-07-13 00:00:00,-133.51878,68.32029,3.876094064686623e-08
0,0,2017-07-14 00:00:00,-133.51878,68.32029,4.0211563644020874e-08
0,0,2017-07-15 00:00:00,-133.51878,68.32029,1.6179037868402057e-08
0,0,2017-07-16 00:00:00,-133.51878,68.32029,4.1499589332209656e-08
0,0,2017-07-17 00:00:00,-133.51878,68.32029,3.315967343670403e-08
0,0,2017-07-18 00:00:00,-133.51878,68.32029,1.2842728377545463e-08
0,0,2017-07-19 00:00:00,-133.51878,68.32029,1.3539018897724303e-08
0,0,2017-07-20 00:00:00,-133.51878,68.32029,1.7572584917548067e-08
0,0,2017-07-21 00:00:00,-133.51878,68.32029,1.9199989833033233e-08
0,0,2017-07-22 00:00:00,-133.51878,68.32029,3.0261305978356555e-08
0,0,2017-07-23 00:00:00,-133.51878,68.32029,2.6131736822741902e-08
0,0,2017-07-24 00:00:00,-133.51878,68.32029,1.171861298751934e-09
0,0,2017-07-25 00:00:00,-133.51878,68.32029,1.8661584416151434e-08
0,0,2017-07-26 00:00:00,-133.51878,68.32029,2.8815994310993222e-08
0,0,2017-07-27 00:00:00,-133.51878,68.32029,2.0366292221177934e-08
0,0,2017-07-28 00:00:00,-133.51878,68.32029,1.2632431505536734e-08
0,0,2017-07-29 00:00:00,-133.51878,68.32029,1.4346089887075537e-08
0,0,2017-07-30 00:00:00,-133.51878,68.32029,7.409135588028038e-09
0,0,2017-07-31 00:00:00,-133.51878,68.32029,3.845619148737995e-09
0,0,2017-08-01 00:00:00,-133.51878,68.32029,1.1988534089593244e-09
0,0,2017-08-02 00:00:00,-133.51878,68.32029,-5.000540107228325e-09
0,0,2017-08-03 00:00:00,-133.51878,68.32029,-5.863654176773923e-09
0,0,2017-08-04 00:00:00,-133.51878,68.32029,-7.501901131323877e-09
0,0,2017-08-05 00:00:00,-133.51878,68.32029,7.128778622644619e-09
0,0,2017-08-06 00:00:00,-133.51878,68.32029,-7.657721061671983e-09
0,0,2017-08-07 00:00:00,-133.51878,68.32029,-3.2128388087772253e-09
0,0,2017-08-08 00:00:00,-133.51878,68.32029,-1.0434699904376572e-08
0,0,2017-08-09 00:00:00,-133.51878,68.32029,-6.997355470829439e-09
0,0,2017-08-10 00:00:00,-133.51878,68.32029,-1.0318086094015025e-08
0,0,2017-08-11 00:00:00,-133.51878,68.32029,-1.0793576232575088e-08
0,0,2017-08-12 00:00:00,-133.51878,68.32029,-6.267626251800383e-09
0,0,2017-08-13 00:00:00,-133.51878,68.32029,-2.027768342101282e-08
0,0,2017-08-14 00:00:00,-133.51878,68.32029,-2.3531455404378555e-08
0,0,2017-08-15 00:00:00,-133.51878,68.32029,1.431637271733816e-09
0,0,2017-08-16 00:00:00,-133.51878,68.32029,-4.2162781879700386e-10
0,0,2017-08-17 00:00:00,-133.51878,68.32029,-9.950619356867976e-09
0,0,2017-08-18 00:00:00,-133.51878,68.32029,-4.18596022587512e-09
0,0,2017-08-19 00:00:00,-133.51878,68.32029,-6.499651527157974e-09
0,0,2017-08-20 00:00:00,-133.51878,68.32029,-3.4735540967031823e-09
0,0,2017-08-21 00:00:00,-133.51878,68.32029,-3.2200586312372348e-09
0,0,2017-08-22 00:00:00,-133.51878,68.32029,-1.405810297318604e-08
0,0,2017-08-23 00:00:00,-133.51878,68.32029,-9.784686790467434e-09
0,0,2017-08-24 00:00:00,-133.51878,68.32029,-1.1046595877574852e-08
0,0,2017-08-25 00:00:00,-133.51878,68.32029,-1.7697072247586387e-08
0,0,2017-08-26 00:00:00,-133.51878,68.32029,-1.7003178625067802e-08
0,0,2017-08-27 00:00:00,-133.51878,68.32029,-1.3102021084639629e-08
0,0,2017-08-28 00:00:00,-133.51878,68.32029,-1.367466943853286e-08
0,0,2017-08-29 00:00:00,-133.51878,68.32029,-2.2011586085396544e-08
0,0,2017-08-30 00:00:00,-133.51878,68.32029,-1.9893836749946312e-08
0,0,2017-08-31 00:00:00,-133.51878,68.32029,-1.4153192857064957e-08
0,0,2017-09-01 00:00:00,-133.51878,68.32029,-7.93151690133692e-09
0,0,2017-09-02 00:00:00,-133.51878,68.32029,-1.6530820261984862e-08
0,0,2017-09-03 00:00:00,-133.51878,68.32029,-8.40362402102793e-09
0,0,2017-09-04 00:00:00,-133.51878,68.32029,-1.1110351139029506e-08
0,0,2017-09-05 00:00:00,-133.51878,68.32029,-1.3083026989525944e-08
0,0,2017-09-06 00:00:00,-133.51878,68.32029,-2.393607766625026e-08
0,0,2017-09-07 00:00:00,-133.51878,68.32029,-1.8167521404900622e-08
0,0,2017-09-08 00:00:00,-133.51878,68.32029,-1.950945759425389e-08
0,0,2017-09-09 00:00:00,-133.51878,68.32029,-1.9939195042987865e-08
0,0,2017-09-10 00:00:00,-133.51878,68.32029,-1.8049710790409205e-08
0,0,2017-09-11 00:00:00,-133.51878,68.32029,-1.6043423553663234e-08
0,0,2017-09-12 00:00:00,-133.51878,68.32029,-8.75917861217607e-09
0,0,2017-09-13 00:00:00,-133.51878,68.32029,-1.4775980114370435e-08
0,0,2017-09-14 00:00:00,-133.51878,68.32029,-1.2793638648139221e-08
0,0,2017-09-15 00:00:00,-133.51878,68.32029,-2.1528096738910452e-08
0,0,2017-09-16 00:00:00,-133.51878,68.32029,-1.8296991960425882e-08
0,0,2017-09-17 00:00:00,-133.51878,68.32029,-1.1122914187553588e-08
0,0,2017-09-18 00:00:00,-133.51878,68.32029,-1.580609769451919e-08
0,0,2017-09-19 00:00:00,-133.51878,68.32029,-2.1912495726871742e-08
0,0,2017-09-20 00:00:00,-133.51878,68.32029,-2.29397780946109e-08
0,0,2017-09-21 00:00:00,-133.51878,68.32029,-2.281966555437493e-08
0,0,2017-09-22 00:00:00,-133.51878,68.32029,-2.1687719899477477e-08
0,0,2017-09-23 00:00:00,-133.51878,68.32029,-2.267251258950003e-08
0,0,2017-09-24 00:00:00,-133.51878,68.32029,-2.1446987753862396e-08
0,0,2017-09-25 00:00:00,-133.51878,68.32029,-2.277690681940131e-08
0,0,2017-09-26 00:00:00,-133.51878,68.32029,-1.970943679980792e-08
0,0,2017-09-27 00:00:00,-133.51878,68.32029,-1.583768072530371e-08
0,0,2017-09-28 00:00:00,-133.51878,68.32029,-2.096854736016184e-08
0,0,2017-09-29 00:00:00,-133.51878,68.32029,-2.308336331288357e-08
0,0,2017-09-30 00:00:00,-133.51878,68.32029,-1.6003596184034196e-08
0,0,2017-10-01 00:00:00,-133.51878,68.32029,-1.8501419060390467e-08
0,0,2017-10-02 00:00:00,-133.51878,68.32029,-1.773929669871828e-08
0,0,2017-10-03 00:00:00,-133.51878,68.32029,-1.966984356511923e-08
0,0,2017-10-04 00:00:00,-133.51878,68.32029,-1.970334338080929e-08
0,0,2017-10-05 00:00:00,-133.51878,68.32029,-2.0273777778377587e-08
0,0,2017-10-06 00:00:00,-133.51878,68.32029,-2.0614239723837602e-08
0,0,2017-10-07 00:00:00,-133.51878,68.32029,-2.1454609081415752e-08
0,0,2017-10-08 00:00:00,-133.51878,68.32029,-2.2137513089730815e-08
0,0,2017-10-09 00:00:00,-133.51878,68.32029,-2.2211958045420604e-08
0,0,2017-10-10 00:00:00,-133.51878,68.32029,-2.125617098215574e-08
0,0,2017-10-11 00:00:00,-133.51878,68.32029,-2.233695722378685e-08
0,0,2017-10-12 00:00:00,-133.51878,68.32029,-2.2292809920735724e-08
0,0,2017-10-13 00:00:00,-133.51878,68.32029,-2.4485020084857845e-08
0,0,2017-10-14 00:00:00,-133.51878,68.32029,-2.4758549374479177e-08
0,0,2017-10-15 00:00:00,-133.51878,68.32029,-2.4787089414428847e-08
0,0,2017-10-16 00:00:00,-133.51878,68.32029,-2.480502032545434e-08
0,0,2017-10-17 00:00:00,-133.51878,68.32029,-2.601278620295321e-08
0,0,2017-10-18 00:00:00,-133.51878,68.32029,-2.4855194308435638e-08
0,0,2017-10-19 00:00:00,-133.51878,68.32029,-2.608807720951551e-08
0,0,2017-10-20 00:00:00,-133.51878,68.32029,-2.70210366994249e-08
0,0,2017-10-21 00:00:00,-133.51878,68.32029,-2.572717904588376e-08
0,0,2017-10-22 00:00:00,-133.51878,68.32029,-2.7804053371321432e-08
0,0,2017-10-23 00:00:00,-133.51878,68.32029,-1.1478572194991943e-08
0,0,2017-10-24 00:00:00,-133.51878,68.32029,-1.0689934120714168e-08
0,0,2017-10-25 00:00:00,-133.51878,68.32029,-1.0893062937012061e-08
0,0,2017-10-26 00:00:00,-133.51878,68.32029,-2.5504483091651496e-08
0,0,2017-10-27 00:00:00,-133.51878,68.32029,-2.6203204296150282e-08
0,0,2017-10-28 00:00:00,-133.51878,68.32029,-2.634997429046216e-08
0,0,2017-10-29 00:00:00,-133.51878,68.32029,-2.6323444950463908e-08
0,0,2017-10-30 00:00:00,-133.51878,68.32029,-1.0939660907954983e-08
0,0,2017-10-31 00:00:00,-133.51878,68.32029,-1.0856038021257685e-08
0,0,2017-11-01 00:00:00,-133.51878,68.32029,-1.103335201236968e-08
0,0,2017-11-02 00:00:00,-133.51878,68.32029,-2.6601653212235633e-08
0,0,2017-11-03 00:00:00,-133.51878,68.32029,-1.1107002177240238e-08
0,0,2017-11-04 00:00:00,-133.51878,68.32029,-1.080637148006414e-08
0,0,2017-11-05 00:00:00,-133.51878,68.32029,-1.0830247554955997e-08
0,0,2017-11-06 00:00:00,-133.51878,68.32029,-1.0543212517739645e-08
0,0,2017-11-07 00:00:00,-133.51878,68.32029,-1.0938395667988144e-08
0,0,2017-11-08 00:00:00,-133.51878,68.32029,-1.0936364497859146e-08
0,0,2017-11-09 00:00:00,-133.51878,68.32029,-1.1010551928871654e-08
0,0,2017-11-10 00:00:00,-133.51878,68.32029,-1.1141586037164954e-08
0,0,2017-11-11 00:00:00,-133.51878,68.32029,-1.0969284401182385e-08
0,0,2017-11-12 00:00:00,-133.51878,68.32029,-1.1077567563482144e-08
0,0,2017-11-13 00:00:00,-133.51878,68.32029,-1.0773613476334414e-08
0,0,2017-11-14 00:00:00,-133.51878,68.32029,-1.0795734128905323e-08
0,0,2017-11-15 00:00:00,-133.51878,68.32029,-1.0736084203457403e-08
0,0,2017-11-16 00:00:00,-133.51878,68.32029,-1.0610613220031317e-08
0,0,2017-11-17 00:00:00,-133.51878,68.32029,-1.1071132121427557e-08
0,0,2017-11-18 00:00:00,-133.51878,68.32029,-1.099048641594606e-08
0,0,2017-11-19 00:00:00,-133.51878,68.32029,-1.065143697516182e-08
0,0,2017-11-20 00:00:00,-133.51878,68.32029,-7.53371595397665e-09
0,0,2017-11-21 00:00:00,-133.51878,68.32029,-7.664170390469092e-09
0,0,2017-11-22 00:00:00,-133.51878,68.32029,-7.936072158807612e-09
0,0,2017-11-23 00:00:00,-133.51878,68.32029,-7.92185768668778e-09
0,0,2017-11-24 00:00:00,-133.51878,68.32029,-7.954618232830755e-09
0,0,2017-11-25 00:00:00,-133.51878,68.32029,-7.920400841934874e-09
0,0,2017-11-26 00:00:00,-133.51878,68.32029,-7.681854426724181e-09
0,0,2017-11-27 00:00:00,-133.51878,68.32029,-7.520423151223687e-09
0,0,2017-11-28 00:00:00,-133.51878,68.32029,-7.508058060617882e-09
0,0,2017-11-29 00:00:00,-133.51878,68.32029,-7.607426885294785e-09
0,0,2017-11-30 00:00:00,-133.51878,68.32029,-8.021948757162818e-09
0,0,2017-12-01 00:00:00,-133.51878,68.32029,-8.384050833469505e-09
0,0,2017-12-02 00:00:00,-133.51878,68.32029,-8.50047829820392e-09
0,0,2017-12-03 00:00:00,-133.51878,68.32029,-1.1253274168167484e-08
0,0,2017-12-04 00:00:00,-133.51878,68.32029,-1.1323042009595495e-08
0,0,2017-12-05 00:00:00,-133.51878,68.32029,-1.167037789365092e-08
0,0,2017-12-06 00:00:00,-133.51878,68.32029,-1.1739397275041818e-08
0,0,2017-12-07 00:00:00,-133.51878,68.32029,-8.845937088420932e-09
0,0,2017-12-08 00:00:00,-133.51878,68.32029,-8.636640866032408e-09
0,0,2017-12-09 00:00:00,-133.51878,68.32029,-8.627337408937572e-09
0,0,2017-12-10 00:00:00,-133.51878,68.32029,-8.67186873560488e-09
0,0,2017-12-11 00:00:00,-133.51878,68.32029,-8.588443485325536e-09
0,0,2017-12-12 00:00:00,-133.51878,68.32029,-8.677901159281995e-09
0,0,2017-12-13 00:00:00,-133.51878,68.32029,-8.76977936794843e-09
0,0,2017-12-14 00:00:00,-133.51878,68.32029,-8.781049006907205e-09
0,0,2017-12-15 00:00:00,-133.51878,68.32029,-8.706441507377864e-09
0,0,2017-12-16 00:00:00,-133.51878,68.32029,-8.338215041849184e-09
0,0,2017-12-17 00:00:00,-133.51878,68.32029,-6.407168006954846e-09
0,0,2017-12-18 00:00:00,-133.51878,68.32029,-6.36594547456704e-09
0,0,2017-12-19 00:00:00,-133.51878,68.32029,-6.617963363170204e-09
0,0,2017-12-20 00:00:00,-133.51878,68.32029,-6.887135105566006e-09
0,0,2017-12-21 00:00:00,-133.51878,68.32029,-6.875732999144763e-09
0,0,2017-12-22 00:00:00,-133.51878,68.32029,-6.895809019825465e-09
0,0,2017-12-23 00:00:00,-133.51878,68.32029,-6.764912190096931e-09
0,0,2017-12-24 00:00:00,-133.51878,68.32029,-6.573000058010207e-09
0,0,2017-12-25 00:00:00,-133.51878,68.32029,-6.337661431094995e-09
0,0,2017-12-26 00:00:00,-133.51878,68.32029,-6.254668644334759e-09
0,0,2017-12-27 00:00:00,-133.51878,68.32029,-6.161068541970905e-09
0,0,2017-12-28 00:00:00,-133.51878,68.32029,-6.0753828571975825e-09
0,0,2017-12-29 00:00:00,-133.51878,68.32029,-6.07141976662441e-09
0,0,2017-12-30 00:00:00,-133.51878,68.32029,-6.245520900732916e-09
0,0,2017-12-31 00:00:00,-133.51878,68.32029,-6.264753598008062e-09
0,0,2018-01-01 00:00:00,-133.51878,68.32029,-5.495606143270739e-09
0,0,2018-01-02 00:00:00,-133.51878,68.32029,-5.4954517077608895e-09
0,0,2018-01-03 00:00:00,-133.51878,68.32029,-5.44406427712727e-09
0,0,2018-01-04 00:00:00,-133.51878,68.32029,-5.456645334762097e-09
0,0,2018-01-05 00:00:00,-133.51878,68.32029,-5.378882166299298e-09
0,0,2018-01-06 00:00:00,-133.51878,68.32029,-5.158457215485428e-09
0,0,2018-01-07 00:00:00,-133.51878,68.32029,-4.8947971555517865e-09
0,0,2018-01-08 00:00:00,-133.51878,68.32029,-4.680332674789578e-09
0,0,2018-01-09 00:00:00,-133.51878,68.32029,-4.5735675884357615e-09
0,0,2018-01-10 00:00:00,-133.51878,68.32029,-4.563382552477657e-09
0,0,2018-01-11 00:00:00,-133.51878,68.32029,-4.588791569632941e-09
0,0,2018-01-12 00:00:00,-133.51878,68.32029,-4.6768569851689116e-09
0,0,2018-01-13 00:00:00,-133.51878,68.32029,-5.1100787276476064e-09
0,0,2018-01-14 00:00:00,-133.51878,68.32029,-5.765971232138881e-09
0,0,2018-01-15 00:00:00,-133.51878,68.32029,-6.7644983444182335e-09
0,0,2018-01-16 00:00:00,-133.51878,68.32029,-7.185741573574272e-09
0,0,2018-01-17 00:00:00,-133.51878,68.32029,-7.517915600577848e-09
0,0,2018-01-18 00:00:00,-133.51878,68.32029,-8.812608803315962e-09
0,0,2018-01-19 00:00:00,-133.51878,68.32029,-8.533678626026641e-09
0,0,2018-01-20 00:00:00,-133.51878,68.32029,-6.743338228564409e-09
0,0,2018-01-21 00:00:00,-133.51878,68.32029,-6.525543531995832e-09
0,0,2018-01-22 00:00:00,-133.51878,68.32029,-6.465144764452907e-09
0,0,2018-01-23 00:00:00,-133.51878,68.32029,-6.494639573252581e-09
0,0,2018-01-24 00:00:00,-133.51878,68.32029,-5.70169025136649e-09
0,0,2018-01-25 00:00:00,-133.51878,68.32029,-5.53209468185344e-09
0,0,2018-01-26 00:00:00,-133.51878,68.32029,-5.303010852030548e-09
0,0,2018-01-27 00:00:00,-133.51878,68.32029,-5.06063283432992e-09
0,0,2018-01-28 00:00:00,-133.51878,68.32029,-4.892570064771286e-09
0,0,2018-01-29 00:00:00,-133.51878,68.32029,-4.862757711106022e-09
0,0,2018-01-30 00:00:00,-133.51878,68.32029,-4.894533285330574e-09
0,0,2018-01-31 00:00:00,-133.51878,68.32029,-4.953814003325288e-09
0,0,2018-02-01 00:00:00,-133.51878,68.32029,-5.129273545589651e-09
0,0,2018-02-02 00:00:00,-133.51878,68.32029,-5.490142264170296e-09
0,0,2018-02-03 00:00:00,-133.51878,68.32029,-5.611411268963089e-09
0,0,2018-02-04 00:00:00,-133.51878,68.32029,-5.559430787170846e-09
0,0,2018-02-05 00:00:00,-133.51878,68.32029,-5.380073788044277e-09
0,0,2018-02-06 00:00:00,-133.51878,68.32029,-5.378624022904358e-09
0,0,2018-02-07 00:00:00,-133.51878,68.32029,-5.760896091637295e-09
0,0,2018-02-08 00:00:00,-133.51878,68.32029,-6.095476035929433e-09
0,0,2018-02-09 00:00:00,-133.51878,68.32029,-6.67934359556049e-09
0,0,2018-02-10 00:00:00,-133.51878,68.32029,-6.062570595756071e-09
0,0,2018-02-11 00:00:00,-133.51878,68.32029,-6.249754351287367e-09
0,0,2018-02-12 00:00:00,-133.51878,68.32029,-5.765226827529549e-09
0,0,2018-02-13 00:00:00,-133.51878,68.32029,-5.535285745362524e-09
0,0,2018-02-14 00:00:00,-133.51878,68.32029,-5.5595966234444685e-09
0,0,2018-02-15 00:00:00,-133.51878,68.32029,-5.709010463188939e-09
0,0,2018-02-16 00:00:00,-133.51878,68.32029,-5.873735217382406e-09
0,0,2018-02-17 00:00:00,-133.51878,68.32029,-5.951105203200778e-09
0,0,2018-02-18 00:00:00,-133.51878,68.32029,-6.0756869385271145e-09
0,0,2018-02-19 00:00:00,-133.51878,68.32029,-6.540104720894167e-09
0,0,2018-02-20 00:00:00,-133.51878,68.32029,-6.830288858096822e-09
0,0,2018-02-21 00:00:00,-133.51878,68.32029,-7.603973104994147e-09
0,0,2018-02-22 00:00:00,-133.51878,68.32029,-7.52566422195072e-09
0,0,2018-02-23 00:00:00,-133.51878,68.32029,-7.460599637656042e-09
0,0,2018-02-24 00:00:00,-133.51878,68.32029,-7.41764892466286e-09
0,0,2018-02-25 00:00:00,-133.51878,68.32029,-7.25696812540313e-09
0,0,2018-02-26 00:00:00,-133.51878,68.32029,-7.113698178367079e-09
0,0,2018-02-27 00:00:00,-133.51878,68.32029,-6.7803972400452554e-09
0,0,2018-02-28 00:00:00,-133.51878,68.32029,-5.759835996251082e-09
0,0,2018-03-01 00:00:00,-133.51878,68.32029,-5.73205759934733e-09
0,0,2018-03-02 00:00:00,-133.51878,68.32029,-6.040388991858771e-09
0,0,2018-03-03 00:00:00,-133.51878,68.32029,-6.2972107183663554e-09
0,0,2018-03-04 00:00:00,-133.51878,68.32029,-6.417854854006887e-09
0,0,2018-03-05 00:00:00,-133.51878,68.32029,-6.529267195455911e-09
0,0,2018-03-06 00:00:00,-133.51878,68.32029,-7.332796584894651e-09
0,0,2018-03-07 00:00:00,-133.51878,68.32029,-7.359626633350287e-09
0,0,2018-03-08 00:00:00,-133.51878,68.32029,-7.1041556351123374e-09
0,0,2018-03-09 00:00:00,-133.51878,68.32029,-6.213529286078199e-09
0,0,2018-03-10 00:00:00,-133.51878,68.32029,-6.246443070420423e-09
0,0,2018-03-11 00:00:00,-133.51878,68.32029,-6.304945860893381e-09
0,0,2018-03-12 00:00:00,-133.51878,68.32029,-6.125169943440824e-09
0,0,2018-03-13 00:00:00,-133.51878,68.32029,-6.223149297424144e-09
0,0,2018-03-14 00:00:00,-133.51878,68.32029,-6.0744744165069576e-09
0,0,2018-03-15 00:00:00,-133.51878,68.32029,-5.912009608675971e-09
0,0,2018-03-16 00:00:00,-133.51878,68.32029,-5.647981464627709e-09
0,0,2018-03-17 00:00:00,-133.51878,68.32029,-5.5086766490273955e-09
0,0,2018-03-18 00:00:00,-133.51878,68.32029,-5.554367487886626e-09
0,0,2018-03-19 00:00:00,-133.51878,68.32029,-5.483187575647953e-09
0,0,2018-03-20 00:00:00,-133.51878,68.32029,-5.274752839466222e-09
0,0,2018-03-21 00:00:00,-133.51878,68.32029,-5.15590389107506e-09
0,0,2018-03-22 00:00:00,-133.51878,68.32029,-4.961062129821755e-09
0,0,2018-03-23 00:00:00,-133.51878,68.32029,-4.7465706043186304e-09
0,0,2018-03-24 00:00:00,-133.51878,68.32029,-4.511743540661004e-09
0,0,2018-03-25 00:00:00,-133.51878,68.32029,-4.471147619173329e-09
0,0,2018-03-26 00:00:00,-133.51878,68.32029,-4.438610644860466e-09
0,0,2018-03-27 00:00:00,-133.51878,68.32029,-4.483580872408224e-09
0,0,2018-03-28 00:00:00,-133.51878,68.32029,-4.563437449517307e-09
0,0,2018-03-29 00:00:00,-133.51878,68.32029,-4.707581819458559e-09
0,0,2018-03-30 00:00:00,-133.51878,68.32029,-4.999469116400887e-09
0,0,2018-03-31 00:00:00,-133.51878,68.32029,-5.003850172342565e-09
0,0,2018-04-01 00:00:00,-133.51878,68.32029,-4.8706869297899e-09
0,0,2018-04-02 00:00:00,-133.51878,68.32029,-4.80491566712932e-09
0,0,2018-04-03 00:00:00,-133.51878,68.32029,-4.747109919983865e-09
0,0,2018-04-04 00:00:00,-133.51878,68.32029,-4.8358683554385335e-09
0,0,2018-04-05 00:00:00,-133.51878,68.32029,-4.826225447932072e-09
0,0,2018-04-06 00:00:00,-133.51878,68.32029,-4.8348755063890355e-09
0,0,2018-04-07 00:00:00,-133.51878,68.32029,-4.814104038812608e-09
0,0,2018-04-08 00:00:00,-133.51878,68.32029,-4.917423480459114e-09
0,0,2018-04-09 00:00:00,-133.51878,68.32029,-5.0831664780440524e-09
0,0,2018-04-10 00:00:00,-133.51878,68.32029,-5.328509125493521e-09
0,0,2018-04-11 00:00:00,-133.51878,68.32029,-5.126883960945908e-09
0,0,2018-04-12 00:00:00,-133.51878,68.32029,-4.945639240956717e-09
0,0,2018-04-13 00:00:00,-133.51878,68.32029,-4.826639945528647e-09
0,0,2018-04-14 00:00:00,-133.51878,68.32029,-4.848579042998844e-09
0,0,2018-04-15 00:00:00,-133.51878,68.32029,-5.053987284352969e-09
0,0,2018-04-16 00:00:00,-133.51878,68.32029,-4.7123543644317704e-09
0,0,2018-04-17 00:00:00,-133.51878,68.32029,-4.548322399008888e-09
0,0,2018-04-18 00:00:00,-133.51878,68.32029,-4.47203984058861e-09
0,0,2018-04-19 00:00:00,-133.51878,68.32029,-4.356552855911619e-09
0,0,2018-04-20 00:00:00,-133.51878,68.32029,-4.394841902537054e-09
0,0,2018-04-21 00:00:00,-133.51878,68.32029,-4.545383138756601e-09
0,0,2018-04-22 00:00:00,-133.51878,68.32029,-4.935054618761979e-09
0,0,2018-04-23 00:00:00,-133.51878,68.32029,-5.79340212123741e-09
0,0,2018-04-24 00:00:00,-133.51878,68.32029,-5.8931451084219445e-09
0,0,2018-04-25 00:00:00,-133.51878,68.32029,-2.0029102294069467e-08
0,0,2018-04-26 00:00:00,-133.51878,68.32029,-2.241928139113428e-08
0,0,2018-04-27 00:00:00,-133.51878,68.32029,-2.3261549479649068e-08
0,0,2018-04-28 00:00:00,-133.51878,68.32029,-2.1009187228834692e-08
0,0,2018-04-29 00:00:00,-133.51878,68.32029,-1.486086249512842e-08
0,0,2018-04-30 00:00:00,-133.51878,68.32029,-1.7272442636521913e-08
0,0,2018-05-01 00:00:00,-133.51878,68.32029,-1.7548007530433067e-08
0,0,2018-05-02 00:00:00,-133.51878,68.32029,-1.3059054417798634e-08
0,0,2018-05-03 00:00:00,-133.51878,68.32029,-1.779189643335106e-08
0,0,2018-05-04 00:00:00,-133.51878,68.32029,-2.1886878079937084e-08
0,0,2018-05-05 00:00:00,-133.51878,68.32029,-2.3007158110968168e-08
0,0,2018-05-06 00:00:00,-133.51878,68.32029,-1.624559972534345e-08
0,0,2018-05-07 00:00:00,-133.51878,68.32029,-1.3757503808270242e-08
0,0,2018-05-08 00:00:00,-133.51878,68.32029,-1.1112467636758036e-09
0,0,2018-05-09 00:00:00,-133.51878,68.32029,-4.972142713850223e-10
0,0,2018-05-10 00:00:00,-133.51878,68.32029,2.6755565657261398e-09
0,0,2018-05-11 00:00:00,-133.51878,68.32029,-1.3479790810553667e-08
0,0,2018-05-12 00:00:00,-133.51878,68.32029,-1.586151220816501e-08
0,0,2018-05-13 00:00:00,-133.51878,68.32029,-9.674472416057956e-09
0,0,2018-05-14 00:00:00,-133.51878,68.32029,-3.218583212281312e-09
0,0,2018-05-15 00:00:00,-133.51878,68.32029,5.073268928051555e-10
0,0,2018-05-16 00:00:00,-133.51878,68.32029,-5.874423907578352e-09
0,0,2018-05-17 00:00:00,-133.51878,68.32029,-1.5231456619654218e-08
0,0,2018-05-18 00:00:00,-133.51878,68.32029,-8.98863608396398e-09
0,0,2018-05-19 00:00:00,-133.51878,68.32029,-3.0331643254140358e-09
0,0,2018-05-20 00:00:00,-133.51878,68.32029,8.017704587881625e-09
0,0,2018-05-21 00:00:00,-133.51878,68.32029,-2.9275054694259596e-09
0,0,2018-05-22 00:00:00,-133.51878,68.32029,-7.833941589806717e-09
0,0,2018-05-23 00:00:00,-133.51878,68.32029,-5.5201770149243244e-09
0,0,2018-05-24 00:00:00,-133.51878,68.32029,-1.4141646220237058e-08
0,0,2018-05-25 00:00:00,-133.51878,68.32029,-1.3740959505660672e-08
0,0,2018-05-26 00:00:00,-133.51878,68.32029,-1.0682409620585939e-08
0,0,2018-05-27 00:00:00,-133.51878,68.32029,-8.079204867659918e-09
0,0,2018-05-28 00:00:00,-133.51878,68.32029,1.5050789384451416e-08
0,0,2018-05-29 00:00:00,-133.51878,68.32029,3.026040761132249e-08
0,0,2018-05-30 00:00:00,-133.51878,68.32029,3.8256785934529906e-08
0,0,2018-05-31 00:00:00,-133.51878,68.32029,3.248840816619338e-08
0,0,2018-06-01 00:00:00,-133.51878,68.32029,3.848238452425526e-08
0,0,2018-06-02 00:00:00,-133.51878,68.32029,4.4272035637942125e-08
0,0,2018-06-03 00:00:00,-133.51878,68.32029,4.796915097974511e-08
0,0,2018-06-04 00:00:00,-133.51878,68.32029,3.6708917537061754e-08
0,0,2018-06-05 00:00:00,-133.51878,68.32029,2.8126452328223528e-08
0,0,2018-06-06 00:00:00,-133.51878,68.32029,2.556596767160629e-08
0,0,2018-06-07 00:00:00,-133.51878,68.32029,2.4681350310683407e-08
0,0,2018-06-08 00:00:00,-133.51878,68.32029,4.115756782317082e-08
0,0,2018-06-09 00:00:00,-133.51878,68.32029,1.0484023016045926e-08
0,0,2018-06-10 00:00:00,-133.51878,68.32029,9.737981649678448e-09
0,0,2018-06-11 00:00:00,-133.51878,68.32029,3.6412560902281083e-08
0,0,2018-06-12 00:00:00,-133.51878,68.32029,4.9819322161475517e-08
0,0,2018-06-13 00:00:00,-133.51878,68.32029,5.024371654749079e-08
0,0,2018-06-14 00:00:00,-133.51878,68.32029,3.723533155487901e-08
0,0,2018-06-15 00:00:00,-133.51878,68.32029,2.8966134057448513e-08
0,0,2018-06-16 00:00:00,-133.51878,68.32029,3.399206335741662e-08
0,0,2018-06-17 00:00:00,-133.51878,68.32029,5.450730005670587e-08
0,0,2018-06-18 00:00:00,-133.51878,68.32029,4.162127930962332e-08
0,0,2018-06-19 00:00:00,-133.51878,68.32029,3.327404139212224e-08
0,0,2018-06-20 00:00:00,-133.51878,68.32029,6.316812509346101e-08
0,0,2018-06-21 00:00:00,-133.51878,68.32029,5.802115731570939e-08
0,0,2018-06-22 00:00:00,-133.51878,68.32029,4.517664338241146e-08
0,0,2018-06-23 00:00:00,-133.51878,68.32029,2.4348800673156903e-08
0,0,2018-06-24 00:00:00,-133.51878,68.32029,5.5785561169731383e-08
0,0,2018-06-25 00:00:00,-133.51878,68.32029,3.177765899077895e-08
0,0,2018-06-26 00:00:00,-133.51878,68.32029,6.740236006402977e-08
0,0,2018-06-27 00:00:00,-133.51878,68.32029,4.307375413752335e-08
0,0,2018-06-28 00:00:00,-133.51878,68.32029,3.96539575378521e-08
0,0,2018-06-29 00:00:00,-133.51878,68.32029,6.087941852886802e-08
0,0,2018-06-30 00:00:00,-133.51878,68.32029,6.34544293690142e-08
0,0,2018-07-01 00:00:00,-133.51878,68.32029,5.1501047586575826e-08
0,0,2018-07-02 00:00:00,-133.51878,68.32029,7.015311581473937e-08
0,0,2018-07-03 00:00:00,-133.51878,68.32029,4.81755376540157e-08
0,0,2018-07-04 00:00:00,-133.51878,68.32029,2.579019472415156e-08
0,0,2018-07-05 00:00:00,-133.51878,68.32029,3.404975876725772e-08
0,0,2018-07-06 00:00:00,-133.51878,68.32029,3.679737810642465e-08
0,0,2018-07-07 00:00:00,-133.51878,68.32029,5.6162562673464446e-08
0,0,2018-07-08 00:00:00,-133.51878,68.32029,5.512520161426575e-08
0,0,2018-07-09 00:00:00,-133.51878,68.32029,5.6383172655392945e-08
0,0,2018-07-10 00:00:00,-133.51878,68.32029,5.3986635922538905e-08
0,0,2018-07-11 00:00:00,-133.51878,68.32029,2.4069189104842565e-08
0,0,2018-07-12 00:00:00,-133.51878,68.32029,6.491611004989015e-08
0,0,2018-07-13 00:00:00,-133.51878,68.32029,5.9407203330927824e-08
0,0,2018-07-14 00:00:00,-133.51878,68.32029,5.65607197400751e-08
0,0,2018-07-15 00:00:00,-133.51878,68.32029,5.6145614714664675e-08
0,0,2018-07-16 00:00:00,-133.51878,68.32029,4.212079506945956e-08
0,0,2018-07-17 00:00:00,-133.51878,68.32029,2.394930928440104e-08
0,0,2018-07-18 00:00:00,-133.51878,68.32029,4.162289727799911e-08
0,0,2018-07-19 00:00:00,-133.51878,68.32029,3.588941004513314e-09
0,0,2018-07-20 00:00:00,-133.51878,68.32029,4.633848098691893e-08
0,0,2018-07-21 00:00:00,-133.51878,68.32029,3.411167966075581e-08
0,0,2018-07-22 00:00:00,-133.51878,68.32029,2.186922004726693e-08
0,0,2018-07-23 00:00:00,-133.51878,68.32029,1.2392315001339232e-08
0,0,2018-07-24 00:00:00,-133.51878,68.32029,1.4446848823703913e-08
0,0,2018-07-25 00:00:00,-133.51878,68.32029,2.2603231656881497e-08
0,0,2018-07-26 00:00:00,-133.51878,68.32029,8.123293339638489e-09
0,0,2018-07-27 00:00:00,-133.51878,68.32029,4.789212788019994e-09
0,0,2018-07-28 00:00:00,-133.51878,68.32029,2.7730849597236185e-08
0,0,2018-07-29 00:00:00,-133.51878,68.32029,2.1798941956396078e-08
0,0,2018-07-30 00:00:00,-133.51878,68.32029,1.8909347594558563e-08
0,0,2018-07-31 00:00:00,-133.51878,68.32029,1.4941198812466785e-08
0,0,2018-08-01 00:00:00,-133.51878,68.32029,-1.9896505139262393e-09
0,0,2018-08-02 00:00:00,-133.51878,68.32029,1.4667269778630277e-08
0,0,2018-08-03 00:00:00,-133.51878,68.32029,2.6764920901926525e-08
0,0,2018-08-04 00:00:00,-133.51878,68.32029,1.1491153177451653e-08
0,0,2018-08-05 00:00:00,-133.51878,68.32029,3.4910325265059436e-09
0,0,2018-08-06 00:00:00,-133.51878,68.32029,-2.634941247180051e-09
0,0,2018-08-07 00:00:00,-133.51878,68.32029,-6.754775173995911e-09
0,0,2018-08-08 00:00:00,-133.51878,68.32029,3.2200794116253768e-09
0,0,2018-08-09 00:00:00,-133.51878,68.32029,5.321019383444607e-09
0,0,2018-08-10 00:00:00,-133.51878,68.32029,6.314699664002444e-09
0,0,2018-08-11 00:00:00,-133.51878,68.32029,2.071041186719782e-09
0,0,2018-08-12 00:00:00,-133.51878,68.32029,1.3107927175697846e-09
0,0,2018-08-13 00:00:00,-133.51878,68.32029,-4.828758301039478e-09
0,0,2018-08-14 00:00:00,-133.51878,68.32029,1.2920948734170804e-08
0,0,2018-08-15 00:00:00,-133.51878,68.32029,1.6225931763956697e-08
0,0,2018-08-16 00:00:00,-133.51878,68.32029,-1.7434069368193527e-08
0,0,2018-08-17 00:00:00,-133.51878,68.32029,7.116238200478823e-09
0,0,2018-08-18 00:00:00,-133.51878,68.32029,9.337964747654735e-09
0,0,2018-08-19 00:00:00,-133.51878,68.32029,3.6715717821034835e-09
0,0,2018-08-20 00:00:00,-133.51878,68.32029,-7.96005526641872e-09
0,0,2018-08-21 00:00:00,-133.51878,68.32029,-4.6577240367206145e-09
0,0,2018-08-22 00:00:00,-133.51878,68.32029,4.38956307156005e-09
0,0,2018-08-23 00:00:00,-133.51878,68.32029,6.012742306975981e-09
0,0,2018-08-24 00:00:00,-133.51878,68.32029,3.7188952048468046e-09
0,0,2018-08-25 00:00:00,-133.51878,68.32029,-5.282967367733983e-09
0,0,2018-08-26 00:00:00,-133.51878,68.32029,-7.392191925081215e-09
0,0,2018-08-27 00:00:00,-133.51878,68.32029,-1.2512591217538134e-08
0,0,2018-08-28 00:00:00,-133.51878,68.32029,-1.3143841366103914e-08
0,0,2018-08-29 00:00:00,-133.51878,68.32029,-7.2644755710090855e-09
0,0,2018-08-30 00:00:00,-133.51878,68.32029,-1.6401774056710544e-08
0,0,2018-08-31 00:00:00,-133.51878,68.32029,-1.1059328954164244e-08
0,0,2018-09-01 00:00:00,-133.51878,68.32029,-1.8985224127478557e-08
0,0,2018-09-02 00:00:00,-133.51878,68.32029,-1.0162142319118638e-08
0,0,2018-09-03 00:00:00,-133.51878,68.32029,-1.5721913756743654e-08
0,0,2018-09-04 00:00:00,-133.51878,68.32029,3.271141101477708e-09
0,0,2018-09-05 00:00:00,-133.51878,68.32029,-1.643351089102329e-08
0,0,2018-09-06 00:00:00,-133.51878,68.32029,-1.5716012155699545e-08
0,0,2018-09-07 00:00:00,-133.51878,68.32029,-3.790552768542766e-09
0,0,2018-09-08 00:00:00,-133.51878,68.32029,-5.523153053085057e-09
0,0,2018-09-09 00:00:00,-133.51878,68.32029,-1.909725910727554e-08
0,0,2018-09-10 00:00:00,-133.51878,68.32029,-1.521929789950441e-08
0,0,2018-09-11 00:00:00,-133.51878,68.32029,-6.098600646080845e-09
0,0,2018-09-12 00:00:00,-133.51878,68.32029,-1.2888536266428466e-08
0,0,2018-09-13 00:00:00,-133.51878,68.32029,-1.0074873782724083e-08
0,0,2018-09-14 00:00:00,-133.51878,68.32029,-9.418325631790443e-09
0,0,2018-09-15 00:00:00,-133.51878,68.32029,-5.108013572745942e-09
0,0,2018-09-16 00:00:00,-133.51878,68.32029,-1.4358965871199591e-08
0,0,2018-09-17 00:00:00,-133.51878,68.32029,-1.6766026639440062e-08
0,0,2018-09-18 00:00:00,-133.51878,68.32029,-1.4594815424428e-08
0,0,2018-09-19 00:00:00,-133.51878,68.32029,-1.382615258825753e-08
0,0,2018-09-20 00:00:00,-133.51878,68.32029,-4.283453583918056e-09
0,0,2018-09-21 00:00:00,-133.51878,68.32029,-9.696021010412569e-09
0,0,2018-09-22 00:00:00,-133.51878,68.32029,-1.6515833127864686e-08
0,0,2018-09-23 00:00:00,-133.51878,68.32029,-2.0222875762628716e-08
0,0,2018-09-24 00:00:00,-133.51878,68.32029,-1.9387399635085218e-08
0,0,2018-09-25 00:00:00,-133.51878,68.32029,-2.2227100574071518e-08
0,0,2018-09-26 00:00:00,-133.51878,68.32029,-1.9729300916692693e-08
0,0,2018-09-27 00:00:00,-133.51878,68.32029,-1.896194112563262e-08
0,0,2018-09-28 00:00:00,-133.51878,68.32029,-2.1866251032325615e-08
0,0,2018-09-29 00:00:00,-133.51878,68.32029,-1.678324127936942e-08
0,0,2018-09-30 00:00:00,-133.51878,68.32029,-2.0449032967005212e-08
0,0,2018-10-01 00:00:00,-133.51878,68.32029,-1.9295726360551702e-08
0,0,2018-10-02 00:00:00,-133.51878,68.32029,-1.8613284907683908e-08
0,0,2018-10-03 00:00:00,-133.51878,68.32029,-2.5108601678767502e-08
0,0,2018-10-04 00:00:00,-133.51878,68.32029,-1.8769016155638667e-08
0,0,2018-10-05 00:00:00,-133.51878,68.32029,-2.5387475316569303e-08
0,0,2018-10-06 00:00:00,-133.51878,68.32029,-2.368469729284712e-08
0,0,2018-10-07 00:00:00,-133.51878,68.32029,-2.5727089896355416e-08
0,0,2018-10-08 00:00:00,-133.51878,68.32029,-2.503481622588684e-08
0,0,2018-10-09 00:00:00,-133.51878,68.32029,-2.5670441268455164e-08
0,0,2018-10-10 00:00:00,-133.51878,68.32029,-9.978699592680735e-09
0,0,2018-10-11 00:00:00,-133.51878,68.32029,-2.5400643274744354e-08
0,0,2018-10-12 00:00:00,-133.51878,68.32029,-2.534451274108806e-08
0,0,2018-10-13 00:00:00,-133.51878,68.32029,-2.5586408454965248e-08
0,0,2018-10-14 00:00:00,-133.51878,68.32029,-2.5183498083114153e-08
0,0,2018-10-15 00:00:00,-133.51878,68.32029,-2.5370710839111763e-08
0,0,2018-10-16 00:00:00,-133.51878,68.32029,-2.5942970743680925e-08
0,0,2018-10-17 00:00:00,-133.51878,68.32029,-2.5511708624647392e-08
0,0,2018-10-18 00:00:00,-133.51878,68.32029,-2.5340670909909572e-08
0,0,2018-10-19 00:00:00,-133.51878,68.32029,-2.5319788569754316e-08
0,0,2018-10-20 00:00:00,-133.51878,68.32029,-2.5611745847754606e-08
0,0,2018-10-21 00:00:00,-133.51878,68.32029,-2.550461030590575e-08
0,0,2018-10-22 00:00:00,-133.51878,68.32029,-2.5995098205041636e-08
0,0,2018-10-23 00:00:00,-133.51878,68.32029,-2.5993797899700254e-08
0,0,2018-10-24 00:00:00,-133.51878,68.32029,-1.0539231595885402e-08
0,0,2018-10-25 00:00:00,-133.51878,68.32029,-1.0072402992354772e-08
0,0,2018-10-26 00:00:00,-133.51878,68.32029,-2.6097825701230923e-08
0,0,2018-10-27 00:00:00,-133.51878,68.32029,-2.614370057430807e-08
0,0,2018-10-28 00:00:00,-133.51878,68.32029,-2.591081578092712e-08
0,0,2018-10-29 00:00:00,-133.51878,68.32029,-1.0634737666207195e-08
0,0,2018-10-30 00:00:00,-133.51878,68.32029,-1.05577966852883e-08
0,0,2018-10-31 00:00:00,-133.51878,68.32029,-1.0418628821397223e-08
0,0,2018-11-01 00:00:00,-133.51878,68.32029,-1.0416201338850852e-08
0,0,2018-11-02 00:00:00,-133.51878,68.32029,-1.0416493623620194e-08
0,0,2018-11-03 00:00:00,-133.51878,68.32029,-1.0279152694302484e-08
0,0,2018-11-04 00:00:00,-133.51878,68.32029,-1.0255211981814781e-08
0,0,2018-11-05 00:00:00,-133.51878,68.32029,-1.0235104509361278e-08
0,0,2018-11-06 00:00:00,-133.51878,68.32029,-1.047298667562363e-08
0,0,2018-11-07 00:00:00,-133.51878,68.32029,-1.0634819499975909e-08
0,0,2018-11-08 00:00:00,-133.51878,68.32029,-1.077222311068972e-08
0,0,2018-11-09 00:00:00,-133.51878,68.32029,-1.0731990568803449e-08
0,0,2018-11-10 00:00:00,-133.51878,68.32029,-1.0599594963041061e-08
0,0,2018-11-11 00:00:00,-133.51878,68.32029,-1.0541232461484669e-08
0,0,2018-11-12 00:00:00,-133.51878,68.32029,-1.0446454483305382e-08
0,0,2018-11-13 00:00:00,-133.51878,68.32029,-1.0376660685214172e-08
0,0,2018-11-14 00:00:00,-133.51878,68.32029,-1.0393661916004772e-08
0,0,2018-11-15 00:00:00,-133.51878,68.32029,-1.0535075188578163e-08
0,0,2018-11-16 00:00:00,-133.51878,68.32029,-1.0816883059954664e-08
0,0,2018-11-17 00:00:00,-133.51878,68.32029,-1.0911508232639133e-08
0,0,2018-11-18 00:00:00,-133.51878,68.32029,-1.0758336524822515e-08
0,0,2018-11-19 00:00:00,-133.51878,68.32029,-1.0912317584498687e-08
0,0,2018-11-20 00:00:00,-133.51878,68.32029,-1.0899454615671375e-08
0,0,2018-11-21 00:00:00,-133.51878,68.32029,-1.0713901965913714e-08
0,0,2018-11-22 00:00:00,-133.51878,68.32029,-1.0477271029896434e-08
0,0,2018-11-23 00:00:00,-133.51878,68.32029,-1.0317812010852055e-08
0,0,2018-11-24 00:00:00,-133.51878,68.32029,-1.0253387670690597e-08
0,0,2018-11-25 00:00:00,-133.51878,68.32029,-1.039161372739171e-08
0,0,2018-11-26 00:00:00,-133.51878,68.32029,-1.0512803914191415e-08
0,0,2018-11-27 00:00:00,-133.51878,68.32029,-1.0527484161097128e-08
0,0,2018-11-28 00:00:00,-133.51878,68.32029,-1.0635594865037908e-08
0,0,2018-11-29 00:00:00,-133.51878,68.32029,-1.066462427095175e-08
0,0,2018-11-30 00:00:00,-133.51878,68.32029,-1.0750465101928967e-08
0,0,2018-12-01 00:00:00,-133.51878,68.32029,-1.0959496596940104e-08
0,0,2018-12-02 00:00:00,-133.51878,68.32029,-1.0940598694220907e-08
0,0,2018-12-03 00:00:00,-133.51878,68.32029,-1.0958424611377812e-08
0,0,2018-12-04 00:00:00,-133.51878,68.32029,-1.0829645908190903e-08
0,0,2018-12-05 00:00:00,-133.51878,68.32029,-1.084315084782739e-08
0,0,2018-12-06 00:00:00,-133.51878,68.32029,-1.072620034406185e-08
0,0,2018-12-07 00:00:00,-133.51878,68.32029,-1.0668514565649592e-08
0,0,2018-12-08 00:00:00,-133.51878,68.32029,-1.0505811431925028e-08
0,0,2018-12-09 00:00:00,-133.51878,68.32029,-1.0228155313527496e-08
0,0,2018-12-10 00:00:00,-133.51878,68.32029,-1.0100978238210997e-08
0,0,2018-12-11 00:00:00,-133.51878,68.32029,-1.015072714965381e-08
0,0,2018-12-12 00:00:00,-133.51878,68.32029,-1.0159510912319465e-08
0,0,2018-12-13 00:00:00,-133.51878,68.32029,-1.0201331404594179e-08
0,0,2018-12-14 00:00:00,-133.51878,68.32029,-1.025779538738521e-08
0,0,2018-12-15 00:00:00,-133.51878,68.32029,-1.0302506915984267e-08
0,0,2018-12-16 00:00:00,-133.51878,68.32029,-1.0353211484596603e-08
0,0,2018-12-17 00:00:00,-133.51878,68.32029,-1.0493294140571816e-08
0,0,2018-12-18 00:00:00,-133.51878,68.32029,-1.0530786748929029e-08
0,0,2018-12-19 00:00:00,-133.51878,68.32029,-1.0431767934148652e-08
0,0,2018-12-20 00:00:00,-133.51878,68.32029,-1.0254760535187037e-08
0,0,2018-12-21 00:00:00,-133.51878,68.32029,-7.835846388706358e-09
0,0,2018-12-22 00:00:00,-133.51878,68.32029,-6.222940562099957e-09
0,0,2018-12-23 00:00:00,-133.51878,68.32029,-6.048989395986729e-09
0,0,2018-12-24 00:00:00,-133.51878,68.32029,-5.950705356338668e-09
0,0,2018-12-25 00:00:00,-133.51878,68.32029,-5.9013064877728034e-09
0,0,2018-12-26 00:00:00,-133.51878,68.32029,-5.977405323262776e-09
0,0,2018-12-27 00:00:00,-133.51878,68.32029,-6.08666761472643e-09
0,0,2018-12-28 00:00:00,-133.51878,68.32029,-6.19335995575998e-09
0,0,2018-12-29 00:00:00,-133.51878,68.32029,-6.477090599922897e-09
0,0,2018-12-30 00:00:00,-133.51878,68.32029,-6.838264392326404e-09
0,0,2018-12-31 00:00:00,-133.51878,68.32029,-8.363232282317492e-09
